iter	MultiClass
0	1.28726018
1	1.212811103
2	1.15555643
3	1.103528606
4	1.059615588
5	1.023532798
6	0.9914920392
7	0.9645285698
8	0.941716498
9	0.9213188559
10	0.90199722
11	0.8861848863
12	0.8718293405
13	0.8581492489
14	0.8467510267
15	0.8367517228
16	0.8267787197
17	0.8183340007
18	0.8104733707
19	0.8012887118
20	0.7931029955
21	0.7863707239
22	0.7809053142
23	0.7750789097
24	0.7713668373
25	0.7661807934
26	0.7614057326
27	0.758085848
28	0.7540011
29	0.7497895092
30	0.7469542419
31	0.743876176
32	0.7411750396
33	0.7381217348
34	0.7343626478
35	0.7318902698
36	0.729407755
37	0.7263525118
38	0.724077646
39	0.7215042444
40	0.7191066519
41	0.7175505006
42	0.7154100832
43	0.7135328311
44	0.7122426761
45	0.7112074856
46	0.7096956491
47	0.7077509349
48	0.706048699
49	0.7042401584
50	0.7024811217
51	0.7013002335
52	0.6997144535
53	0.6980210285
54	0.6967294776
55	0.6956053582
56	0.6944928172
57	0.6933306086
58	0.692084615
59	0.6909609441
60	0.6901683079
61	0.6892982943
62	0.6886664104
63	0.6876960662
64	0.6868956422
65	0.6861823988
66	0.6853380521
67	0.6842202588
68	0.6835649305
69	0.6827780983
70	0.682290748
71	0.6814976531
72	0.6808972843
73	0.6800669402
74	0.6795681393
75	0.6792759284
76	0.6788319239
77	0.6780900649
78	0.6768423094
79	0.6766202804
80	0.6755535281
81	0.675077284
82	0.6745896643
83	0.6740625772
84	0.6734417485
85	0.6719559191
86	0.6714589216
87	0.6711388444
88	0.6703122965
89	0.6694072327
90	0.6691279258
91	0.6688257554
92	0.667892297
93	0.667233279
94	0.6667872513
95	0.6666338091
96	0.666345841
97	0.6659081284
98	0.6658419625
99	0.6652980926
100	0.6647920515
101	0.6646673699
102	0.6637201617
103	0.6635380636
104	0.66289989
105	0.662733528
106	0.6623203032
107	0.6619935374
108	0.6619403971
109	0.6617634389
110	0.6616081312
111	0.6609285214
112	0.6602367104
113	0.6597666777
114	0.6596553449
115	0.6592906899
116	0.6590117046
117	0.6586782787
118	0.6584965388
119	0.6584232894
120	0.6582363963
121	0.6580178606
122	0.6575166982
123	0.6572602962
124	0.6571466907
125	0.6570899706
126	0.6568193696
127	0.6565754848
128	0.6557567246
129	0.6555955532
130	0.6553470832
131	0.6549112923
132	0.6544261133
133	0.6540966795
134	0.653956612
135	0.6537269604
136	0.6533447484
137	0.6533121076
138	0.6530338028
139	0.6527443681
140	0.6525626999
141	0.6522957959
142	0.651626183
143	0.6515686424
144	0.6513991209
145	0.6512408858
146	0.6512121498
147	0.6510975997
148	0.6509046243
149	0.6506443557
150	0.6504044954
151	0.6500931411
152	0.6499222034
153	0.6497496462
154	0.6496400935
155	0.6495974867
156	0.6492622451
157	0.6490849914
158	0.6487663726
159	0.648487984
160	0.6483622466
161	0.6482889141
162	0.6481262637
163	0.6481117713
164	0.6479809342
165	0.6478308657
166	0.6477742646
167	0.6475964331
168	0.6474870176
169	0.6473744473
170	0.6471670863
171	0.6463858778
172	0.6463055454
173	0.6462088357
174	0.6461115417
175	0.6459041487
176	0.6458091111
177	0.6451331378
178	0.6450153674
179	0.6449121631
180	0.6447409339
181	0.6444204973
182	0.6441292044
183	0.6438571575
184	0.6436905905
185	0.6435507159
186	0.6433575042
187	0.6429746864
188	0.6426435275
189	0.6425611315
190	0.6424734679
191	0.642309922
192	0.6422380262
193	0.6421425074
194	0.6419139957
195	0.6416167029
196	0.641582722
197	0.64140955
198	0.6412257093
199	0.6411101947
200	0.6408502139
201	0.640593369
202	0.6405738865
203	0.640317481
204	0.640129122
205	0.6399593033
206	0.639917827
207	0.6397356982
208	0.6393108483
209	0.6392594798
210	0.6390492246
211	0.638978371
212	0.6388348191
213	0.6387380593
214	0.6387025343
215	0.6386227026
216	0.6384722427
217	0.638355214
218	0.6382038689
219	0.6380397356
220	0.6379265396
221	0.6378510333
222	0.6377234799
223	0.6376767784
224	0.6374731496
225	0.6374263289
226	0.6372223497
227	0.6369521368
228	0.6366939928
229	0.6359980663
230	0.635944874
231	0.6358433002
232	0.6356789236
233	0.6355371873
234	0.6353552708
235	0.6353002563
236	0.635238553
237	0.6352099231
238	0.6349555581
239	0.6345443115
240	0.6344102022
241	0.634297091
242	0.6342750719
243	0.6341584496
244	0.6341096629
245	0.6340941891
246	0.6339270855
247	0.6334799109
248	0.6332820838
249	0.6331872983
250	0.6330781866
251	0.6329843362
252	0.6329133622
253	0.6328144155
254	0.6327080239
255	0.6326935925
256	0.6324468006
257	0.6322949995
258	0.6322370524
259	0.6321412163
260	0.6320273605
261	0.6316763311
262	0.6315951729
263	0.6314630844
264	0.6313722784
265	0.6312332131
266	0.6311274637
267	0.6310615764
268	0.6309511512
269	0.6308344498
270	0.6307692234
271	0.6306981939
272	0.6306425185
273	0.6304542717
274	0.630343926
275	0.6300774197
276	0.6298455094
277	0.6298425456
278	0.6298279534
279	0.629745815
280	0.6295318914
281	0.62945686
282	0.6293259049
283	0.6292665769
284	0.6292271969
285	0.6290587468
286	0.6289492956
287	0.6289013941
288	0.6288599608
289	0.6286556566
290	0.6285430365
291	0.6283065999
292	0.6282042799
293	0.6281511727
294	0.6280155938
295	0.6279911819
296	0.6278880333
297	0.6278200638
298	0.6275956726
299	0.6274527293
300	0.6270212181
301	0.6267956238
302	0.626627791
303	0.6265221166
304	0.6264212948
305	0.6263178388
306	0.6262447245
307	0.6261252152
308	0.6260270255
309	0.625845816
310	0.6258008116
311	0.6257695748
312	0.6257034657
313	0.6255764016
314	0.6254556388
315	0.6253501262
316	0.6253432952
317	0.6252445236
318	0.6252029664
319	0.6250070323
320	0.6249255159
321	0.6247910147
322	0.6247640187
323	0.6244681827
324	0.6244562856
325	0.6243847677
326	0.6243685757
327	0.6242730874
328	0.6241618095
329	0.6240931288
330	0.6240768081
331	0.6240680473
332	0.6239741231
333	0.6238266779
334	0.6237096608
335	0.6235440083
336	0.6234610057
337	0.623251942
338	0.623170283
339	0.6230000811
340	0.6229012964
341	0.6228631721
342	0.6224089164
343	0.6223614061
344	0.6223060115
345	0.6221425152
346	0.622085415
347	0.62200554
348	0.6218290703
349	0.6216333042
350	0.6215988972
351	0.6214790787
352	0.6214145288
353	0.6213309101
354	0.6212327145
355	0.6210635704
356	0.6208407005
357	0.6208169642
358	0.6207449981
359	0.6207339857
360	0.6207021472
361	0.620403659
362	0.6203051306
363	0.6202927778
364	0.6202301365
365	0.6201984117
366	0.6200947443
367	0.6200460198
368	0.6200014425
369	0.6197627429
370	0.6197063031
371	0.619609258
372	0.6194664164
373	0.6193770005
374	0.6192155321
375	0.6191193037
376	0.6190638501
377	0.618965907
378	0.6189459623
379	0.6188678544
380	0.6187273206
381	0.6186894548
382	0.6186725882
383	0.6186482874
384	0.6186165703
385	0.6185432928
386	0.6184274354
387	0.6183632498
388	0.6182723291
389	0.618231356
390	0.6182001568
391	0.6181276136
392	0.6180954823
393	0.6180036616
394	0.6179870197
395	0.6178492248
396	0.6177840756
397	0.617693174
398	0.6176394017
399	0.6175359186
400	0.6173830406
401	0.6172088344
402	0.6170335117
403	0.616977948
404	0.6169352632
405	0.6168490927
406	0.6166769786
407	0.6166140352
408	0.6165586549
409	0.6164763897
410	0.6164117374
411	0.6161824935
412	0.6160878724
413	0.6160404553
414	0.6158885618
415	0.6157383616
416	0.6156235851
417	0.6155020032
418	0.6154504204
419	0.6153880656
420	0.6153403329
421	0.6152327504
422	0.6151616975
423	0.615077937
424	0.6148651863
425	0.6148469637
426	0.614696665
427	0.6145745046
428	0.6145000275
429	0.6143763209
430	0.6143566107
431	0.6142591828
432	0.6141460706
433	0.6140037636
434	0.6139745427
435	0.6138846423
436	0.6138135428
437	0.6137454305
438	0.6137030468
439	0.6135654771
440	0.6135017871
441	0.6134753253
442	0.61343509
443	0.6133306121
444	0.6132657718
445	0.6131891519
446	0.6131159246
447	0.6130925391
448	0.6129678568
449	0.6128224332
450	0.6126697371
451	0.6125875482
452	0.6125259519
453	0.612450779
454	0.6124154044
455	0.6123784511
456	0.6123194788
457	0.6122946616
458	0.6122603445
459	0.6122380289
460	0.6121901356
461	0.6121471864
462	0.6121082411
463	0.6119230909
464	0.6117994199
465	0.6117081106
466	0.6116647011
467	0.6116049678
468	0.6115141545
469	0.6114310985
470	0.611359968
471	0.6112542348
472	0.611167673
473	0.6111265812
474	0.6110889212
475	0.6110640929
476	0.6108390807
477	0.6106221022
478	0.6104749408
479	0.6103805463
480	0.6103644022
481	0.6101347145
482	0.6101026159
483	0.6099239472
484	0.6097646789
485	0.6096127857
486	0.6094788046
487	0.6093449878
488	0.609279455
489	0.6091633312
490	0.6091193775
491	0.6090567517
492	0.6090026453
493	0.6089546565
494	0.6088757038
495	0.6087796137
496	0.6087242776
497	0.6085989037
498	0.6085208232
499	0.6084134946
500	0.608352064
501	0.6083389257
502	0.60828264
503	0.60810404
504	0.6080562769
505	0.6080019045
506	0.6079422673
507	0.6079130902
508	0.6078811651
509	0.6078275795
510	0.6076632892
511	0.6076222072
512	0.6075624674
513	0.6073877487
514	0.6071713605
515	0.6070785919
516	0.6068847534
517	0.6067943504
518	0.6067697121
519	0.6066783534
520	0.6065461977
521	0.6064889518
522	0.6062962148
523	0.6061591295
524	0.6061020033
525	0.6060252343
526	0.6058611751
527	0.6057818211
528	0.6056577654
529	0.6056019277
530	0.6055402847
531	0.6055226143
532	0.6053833169
533	0.6053487837
534	0.6053119293
535	0.6052167649
536	0.6050848816
537	0.6050678048
538	0.6049562053
539	0.6049420585
540	0.604815638
541	0.6046330811
542	0.6043911467
543	0.6042828456
544	0.6042186844
545	0.6040690417
546	0.6039852685
547	0.6039087402
548	0.6038711635
549	0.6037934387
550	0.6037308209
551	0.6037129039
552	0.6036774572
553	0.6035024855
554	0.6033716755
555	0.603298371
556	0.6032196996
557	0.6031994801
558	0.6031046949
559	0.6030983917
560	0.6030623627
561	0.6029613635
562	0.6029174835
563	0.6028341634
564	0.6027978161
565	0.6027296837
566	0.6026815161
567	0.6024679325
568	0.6023273744
569	0.6022845489
570	0.6021889488
571	0.6021186061
572	0.6020250768
573	0.6019608556
574	0.6018956382
575	0.6018669581
576	0.6018415444
577	0.6018376891
578	0.6017686671
579	0.6017044659
580	0.6015808844
581	0.6015638503
582	0.6014889864
583	0.6014486891
584	0.6013817959
585	0.6013382678
586	0.6012421305
587	0.6011820513
588	0.6010735198
589	0.6009709491
590	0.6008974056
591	0.6008473874
592	0.6007303451
593	0.6006345928
594	0.600602766
595	0.6004681218
596	0.600211116
597	0.6001892653
598	0.6001367031
599	0.5999944161
600	0.5998835241
601	0.5998532427
602	0.5997959923
603	0.5995975964
604	0.5995741324
605	0.5994393992
606	0.5994065865
607	0.5993766986
608	0.599315962
609	0.599239536
610	0.5992240059
611	0.5991806891
612	0.5991490686
613	0.5990532322
614	0.5989706125
615	0.5989016586
616	0.5988467539
617	0.5988279935
618	0.5987625385
619	0.5987109538
620	0.5986632717
621	0.5985657738
622	0.5985141923
623	0.5984995989
624	0.598424891
625	0.5984073867
626	0.5983006703
627	0.5982629588
628	0.5981927256
629	0.5981580992
630	0.5981218275
631	0.5980863051
632	0.598042461
633	0.5979512891
634	0.5978798294
635	0.5978172609
636	0.5977965149
637	0.5976962837
638	0.5976397747
639	0.5976215954
640	0.5976018176
641	0.5975550623
642	0.5973538607
643	0.5973089952
644	0.5972701768
645	0.5972490211
646	0.5971397304
647	0.5971185768
648	0.5970367494
649	0.5969680846
650	0.5968977808
651	0.5967068848
652	0.5966714945
653	0.5966249556
654	0.5965619518
655	0.596523226
656	0.5963712479
657	0.5962919453
658	0.5962391242
659	0.5961917111
660	0.596106188
661	0.595991148
662	0.5959267887
663	0.595825559
664	0.5957612157
665	0.5956909296
666	0.5955813405
667	0.5954078476
668	0.5953001951
669	0.5952656436
670	0.5952281717
671	0.5951255904
672	0.595042107
673	0.5948922067
674	0.5948619758
675	0.5947787549
676	0.5946240023
677	0.5944764646
678	0.5944141054
679	0.5943858607
680	0.5942908809
681	0.5940243292
682	0.5939958995
683	0.5938592462
684	0.5938498654
685	0.5937785456
686	0.5937669071
687	0.5936168959
688	0.593581839
689	0.5934432814
690	0.5933763436
691	0.5932311966
692	0.5931903229
693	0.593027699
694	0.5929933649
695	0.5929324579
696	0.592836919
697	0.5927793448
698	0.5927660072
699	0.5926720901
700	0.5924927914
701	0.5924182284
702	0.5923664391
703	0.5922894851
704	0.5922496013
705	0.5921407024
706	0.5920549884
707	0.5919726462
708	0.5919436144
709	0.5919252325
710	0.5918703392
711	0.5918377762
712	0.5917591092
713	0.5917380011
714	0.5916940049
715	0.5916516316
716	0.5914663584
717	0.5913361428
718	0.5912320148
719	0.5911909193
720	0.5911226214
721	0.5910900842
722	0.5910836511
723	0.5910400561
724	0.590961556
725	0.59094874
726	0.590876055
727	0.5907945026
728	0.5907208644
729	0.5906770384
730	0.590647852
731	0.5906166753
732	0.5905692558
733	0.5905050857
734	0.5902815885
735	0.5901069851
736	0.5900548304
737	0.5899316795
738	0.58990583
739	0.5898437061
740	0.5896294587
741	0.5894652734
742	0.589400653
743	0.5893583223
744	0.5893035072
745	0.5892790321
746	0.5892173111
747	0.5891473857
748	0.5889961357
749	0.5889284164
750	0.5888441933
751	0.5886383358
752	0.5883909183
753	0.5883160787
754	0.5881678776
755	0.588048357
756	0.5879514412
757	0.587928087
758	0.5878518393
759	0.5877823966
760	0.5877477912
761	0.5876020417
762	0.5875738028
763	0.5875523456
764	0.5875368661
765	0.5874443816
766	0.5874268462
767	0.5873521843
768	0.5872324367
769	0.5871114812
770	0.5869932904
771	0.5869417927
772	0.5868949465
773	0.5868158447
774	0.5866709809
775	0.5866080471
776	0.5864983008
777	0.5864734618
778	0.5864617274
779	0.5863316891
780	0.5862269411
781	0.5861078863
782	0.5860542229
783	0.5860491585
784	0.5859743656
785	0.5859559173
786	0.5858814061
787	0.5858383215
788	0.5857835665
789	0.5857124571
790	0.5856829134
791	0.5855125654
792	0.5854784617
793	0.5854432587
794	0.5853662879
795	0.5853306529
796	0.5852671563
797	0.5852032993
798	0.5851832161
799	0.5851500691
800	0.5851089175
801	0.5850425522
802	0.5849914591
803	0.5848723382
804	0.5847442939
805	0.5845666337
806	0.584523382
807	0.5844198
808	0.5843754766
809	0.5843424245
810	0.5843344789
811	0.5842682755
812	0.5842104638
813	0.5841672261
814	0.5840654152
815	0.5840355063
816	0.5839628481
817	0.5838031409
818	0.58371692
819	0.5835648128
820	0.5834456215
821	0.5834076806
822	0.5833273393
823	0.583261504
824	0.5831622165
825	0.5831373954
826	0.5831302894
827	0.5830509202
828	0.5828511956
829	0.5827045868
830	0.5825011923
831	0.5824620466
832	0.582402584
833	0.5823512059
834	0.5823231124
835	0.5822375197
836	0.5821898094
837	0.5821468332
838	0.5820557334
839	0.5819917488
840	0.5819499138
841	0.5818432022
842	0.5817719471
843	0.5816999562
844	0.5816352103
845	0.5816108402
846	0.5815572337
847	0.5814708366
848	0.5814265142
849	0.5813644932
850	0.5813335243
851	0.581305951
852	0.5810998858
853	0.5810278849
854	0.5809452464
855	0.5809339598
856	0.5808783514
857	0.5808252988
858	0.5807304471
859	0.5807231963
860	0.5806582553
861	0.5805964901
862	0.5805211612
863	0.580415233
864	0.5803365479
865	0.5802819974
866	0.580168736
867	0.580011068
868	0.5799460519
869	0.5799270277
870	0.5798699884
871	0.5798516621
872	0.5798193392
873	0.5797601985
874	0.5797078481
875	0.579680019
876	0.5796667155
877	0.5796439619
878	0.5795967618
879	0.5795012674
880	0.5794534739
881	0.5794129075
882	0.5793595789
883	0.579274033
884	0.5792459606
885	0.5792048372
886	0.5791926739
887	0.5791279792
888	0.5790721867
889	0.5790382278
890	0.5789847006
891	0.5789350291
892	0.5789139554
893	0.5788477674
894	0.5787089418
895	0.5786595937
896	0.5786144257
897	0.5785554181
898	0.5785099812
899	0.5783564218
900	0.5782793733
901	0.5782198659
902	0.5782142188
903	0.5781471975
904	0.5781248489
905	0.5779804352
906	0.5778756689
907	0.5777879961
908	0.5777677201
909	0.5775797737
910	0.5775209989
911	0.5774451881
912	0.5773562607
913	0.5773154297
914	0.5772399937
915	0.577199143
916	0.5771957932
917	0.5770559913
918	0.5769121196
919	0.5768741147
920	0.5768236401
921	0.5767224441
922	0.5766729644
923	0.5766166402
924	0.5765068697
925	0.5764407838
926	0.5763237565
927	0.5761698117
928	0.5761296794
929	0.576032972
930	0.5759872317
931	0.5759688384
932	0.5759225968
933	0.5758420644
934	0.5757777203
935	0.5756729951
936	0.5756233654
937	0.5755853224
938	0.575518107
939	0.5754758656
940	0.5754211084
941	0.5753994199
942	0.5753325219
943	0.5752524094
944	0.5751343752
945	0.5750459485
946	0.5749034891
947	0.5748167592
948	0.5746604272
949	0.5745912701
950	0.5745483633
951	0.5744976096
952	0.5744280276
953	0.5743897254
954	0.5743120427
955	0.5742786679
956	0.5742100797
957	0.574171302
958	0.5740789959
959	0.5740173023
960	0.5738821452
961	0.5738464704
962	0.5737636745
963	0.5736822853
964	0.5736112197
965	0.573585809
966	0.5734893715
967	0.5734238958
968	0.5733377979
969	0.5732611323
970	0.5732335022
971	0.5731344908
972	0.573053529
973	0.5730114017
974	0.5729404031
975	0.5728874241
976	0.5728703868
977	0.5728035502
978	0.5727890278
979	0.5726908097
980	0.5726543268
981	0.5726237491
982	0.572602127
983	0.5725462754
984	0.5725117046
985	0.5724737681
986	0.572406008
987	0.5723028759
988	0.5722404785
989	0.5721822036
990	0.5721695463
991	0.57210061
992	0.5719773781
993	0.5719543984
994	0.5719381431
995	0.5719097256
996	0.571810682
997	0.5718033481
998	0.5717302991
999	0.5716049979
