{
"meta":{"test_sets":["test"],"test_metrics":[{"best_value":"Min","name":"MultiClass"}],"learn_metrics":[{"best_value":"Min","name":"MultiClass"}],"launch_mode":"Train","parameters":"","iteration_count":500,"learn_sets":["learn"],"name":"experiment"},
"iterations":[
{"learn":[1.293361049],"iteration":0,"passed_time":0.09504308438,"remaining_time":47.42649911,"test":[1.293429849]},
{"learn":[1.222273498],"iteration":1,"passed_time":0.1729127396,"remaining_time":43.05527216,"test":[1.223276568]},
{"learn":[1.166649887],"iteration":2,"passed_time":0.2446410347,"remaining_time":40.52886475,"test":[1.16842372]},
{"learn":[1.123150003],"iteration":3,"passed_time":0.2978802795,"remaining_time":36.93715466,"test":[1.125562709]},
{"learn":[1.086672129],"iteration":4,"passed_time":0.3755974999,"remaining_time":37.18415249,"test":[1.089617083]},
{"learn":[1.055926778],"iteration":5,"passed_time":0.4529058162,"remaining_time":37.28924553,"test":[1.059684658]},
{"learn":[1.030149691],"iteration":6,"passed_time":0.5476993319,"remaining_time":38.57368152,"test":[1.03409684]},
{"learn":[1.006004292],"iteration":7,"passed_time":0.6371903398,"remaining_time":39.1872059,"test":[1.010128036]},
{"learn":[0.9847268969],"iteration":8,"passed_time":0.7174275698,"remaining_time":39.13965964,"test":[0.989475155]},
{"learn":[0.9673814003],"iteration":9,"passed_time":0.7996432166,"remaining_time":39.18251761,"test":[0.9721404608]},
{"learn":[0.9519942061],"iteration":10,"passed_time":0.8809648753,"remaining_time":39.16289309,"test":[0.9566187415]},
{"learn":[0.939284379],"iteration":11,"passed_time":0.9596386246,"remaining_time":39.02530407,"test":[0.9445979306]},
{"learn":[0.9279813745],"iteration":12,"passed_time":1.046805483,"remaining_time":39.21494385,"test":[0.9335973879]},
{"learn":[0.9184216127],"iteration":13,"passed_time":1.129197548,"remaining_time":39.19928632,"test":[0.9242428189]},
{"learn":[0.904933745],"iteration":14,"passed_time":1.208340216,"remaining_time":39.06966699,"test":[0.9092037931]},
{"learn":[0.8927901215],"iteration":15,"passed_time":1.322697517,"remaining_time":40.0115999,"test":[0.8959057516]},
{"learn":[0.882672225],"iteration":16,"passed_time":1.409893654,"remaining_time":40.05756677,"test":[0.8837340731]},
{"learn":[0.8714327944],"iteration":17,"passed_time":1.499844614,"remaining_time":40.16250579,"test":[0.8700382255]},
{"learn":[0.8636280869],"iteration":18,"passed_time":1.688958684,"remaining_time":42.75732246,"test":[0.8600045144]},
{"learn":[0.8556780686],"iteration":19,"passed_time":1.879912531,"remaining_time":45.11790073,"test":[0.8501536308]},
{"learn":[0.8497985259],"iteration":20,"passed_time":2.115421253,"remaining_time":48.25175145,"test":[0.8440359467]},
{"learn":[0.8441246224],"iteration":21,"passed_time":2.2316319,"remaining_time":48.48727491,"test":[0.8369649471]},
{"learn":[0.8392084606],"iteration":22,"passed_time":2.383857074,"remaining_time":49.4391228,"test":[0.8314118149]},
{"learn":[0.8341585959],"iteration":23,"passed_time":2.514008875,"remaining_time":49.86117602,"test":[0.8250877274]},
{"learn":[0.8296131073],"iteration":24,"passed_time":2.6179596,"remaining_time":49.74123239,"test":[0.8198422903]},
{"learn":[0.8254516968],"iteration":25,"passed_time":2.721903122,"remaining_time":49.62238769,"test":[0.8141842975]},
{"learn":[0.8221225169],"iteration":26,"passed_time":2.846984786,"remaining_time":49.8749557,"test":[0.8096660869]},
{"learn":[0.8190821165],"iteration":27,"passed_time":2.965929746,"remaining_time":49.99710143,"test":[0.8048995012]},
{"learn":[0.8158602182],"iteration":28,"passed_time":3.084535897,"remaining_time":50.09711749,"test":[0.8006585677]},
{"learn":[0.813182078],"iteration":29,"passed_time":3.182830711,"remaining_time":49.8643478,"test":[0.7976612102]},
{"learn":[0.8099353977],"iteration":30,"passed_time":3.274542978,"remaining_time":49.54066634,"test":[0.79295921]},
{"learn":[0.8078069194],"iteration":31,"passed_time":3.414032092,"remaining_time":49.93021935,"test":[0.7907368543]},
{"learn":[0.8046531335],"iteration":32,"passed_time":3.536479807,"remaining_time":50.04654757,"test":[0.7858521558]},
{"learn":[0.8037375847],"iteration":33,"passed_time":3.656964251,"remaining_time":50.1219218,"test":[0.7850652556]},
{"learn":[0.8009955259],"iteration":34,"passed_time":3.766340029,"remaining_time":50.03851753,"test":[0.7814209488]},
{"learn":[0.7993168659],"iteration":35,"passed_time":3.90967437,"remaining_time":50.39135854,"test":[0.7794360971]},
{"learn":[0.7975146122],"iteration":36,"passed_time":4.035657127,"remaining_time":50.50024999,"test":[0.7776587219]},
{"learn":[0.7958586057],"iteration":37,"passed_time":4.173824513,"remaining_time":50.74491908,"test":[0.7759645269]},
{"learn":[0.794293952],"iteration":38,"passed_time":4.304139447,"remaining_time":50.87713551,"test":[0.7739282056]},
{"learn":[0.7925750813],"iteration":39,"passed_time":4.443810058,"remaining_time":51.10381567,"test":[0.7723012377]},
{"learn":[0.7914606473],"iteration":40,"passed_time":4.577906399,"remaining_time":51.25022041,"test":[0.7701203285]},
{"learn":[0.7906309457],"iteration":41,"passed_time":4.68295411,"remaining_time":51.06649958,"test":[0.7694335496]},
{"learn":[0.7884189721],"iteration":42,"passed_time":4.782827285,"remaining_time":50.83144347,"test":[0.7663551289]},
{"learn":[0.7868496637],"iteration":43,"passed_time":4.959194368,"remaining_time":51.39528708,"test":[0.7646528655]},
{"learn":[0.7849854537],"iteration":44,"passed_time":5.099304817,"remaining_time":51.55963759,"test":[0.7621551962]},
{"learn":[0.7832563345],"iteration":45,"passed_time":5.217900649,"remaining_time":51.49841075,"test":[0.759875396]},
{"learn":[0.7822661577],"iteration":46,"passed_time":5.339573051,"remaining_time":51.46439557,"test":[0.7584653365]},
{"learn":[0.7819612804],"iteration":47,"passed_time":5.448709968,"remaining_time":51.30868553,"test":[0.7582781163]},
{"learn":[0.780801326],"iteration":48,"passed_time":5.552538598,"remaining_time":51.10601852,"test":[0.7570449086]},
{"learn":[0.7795369967],"iteration":49,"passed_time":5.649789993,"remaining_time":50.84810994,"test":[0.7555669602]},
{"learn":[0.7789075963],"iteration":50,"passed_time":5.766113055,"remaining_time":50.76440709,"test":[0.7548177116]},
{"learn":[0.7780412438],"iteration":51,"passed_time":5.872794368,"remaining_time":50.59638224,"test":[0.7540756905]},
{"learn":[0.7768066922],"iteration":52,"passed_time":5.973796211,"remaining_time":50.38277182,"test":[0.7519529881]},
{"learn":[0.7760587927],"iteration":53,"passed_time":6.076056509,"remaining_time":50.18372598,"test":[0.7514012199]},
{"learn":[0.7756657941],"iteration":54,"passed_time":6.167448093,"remaining_time":49.90026184,"test":[0.750866118]},
{"learn":[0.775015608],"iteration":55,"passed_time":6.262135495,"remaining_time":49.64978857,"test":[0.7503445406]},
{"learn":[0.7746319921],"iteration":56,"passed_time":6.3302574,"remaining_time":49.19831628,"test":[0.7498821275]},
{"learn":[0.7742946132],"iteration":57,"passed_time":6.402744042,"remaining_time":48.79332529,"test":[0.7496008159]},
{"learn":[0.7738875612],"iteration":58,"passed_time":6.475630159,"remaining_time":48.40259153,"test":[0.7492381805]},
{"learn":[0.773805245],"iteration":59,"passed_time":6.538309823,"remaining_time":47.94760537,"test":[0.7492293301]},
{"learn":[0.7732362313],"iteration":60,"passed_time":6.597622679,"remaining_time":47.48125174,"test":[0.7486084536]},
{"learn":[0.7721929233],"iteration":61,"passed_time":6.652617959,"remaining_time":46.99752687,"test":[0.7469120508]},
{"learn":[0.7710656378],"iteration":62,"passed_time":6.715528717,"remaining_time":46.58231824,"test":[0.7448846991]},
{"learn":[0.7699672499],"iteration":63,"passed_time":6.787337274,"remaining_time":46.23873518,"test":[0.7432900156]},
{"learn":[0.7693754744],"iteration":64,"passed_time":6.85857325,"remaining_time":45.89968252,"test":[0.7427998738]},
{"learn":[0.7688048312],"iteration":65,"passed_time":6.936124152,"remaining_time":45.61027094,"test":[0.7424592422]},
{"learn":[0.768059307],"iteration":66,"passed_time":6.990106572,"remaining_time":45.17486785,"test":[0.7412823729]},
{"learn":[0.7677669532],"iteration":67,"passed_time":7.054278948,"remaining_time":44.8154192,"test":[0.7409887772]},
{"learn":[0.7672369259],"iteration":68,"passed_time":7.130981929,"remaining_time":44.54280017,"test":[0.7407737445]},
{"learn":[0.767150995],"iteration":69,"passed_time":7.201510467,"remaining_time":44.23785001,"test":[0.7407577561]},
{"learn":[0.7658781665],"iteration":70,"passed_time":7.261583155,"remaining_time":43.87632639,"test":[0.7381922888]},
{"learn":[0.7651659094],"iteration":71,"passed_time":7.333496775,"remaining_time":43.59356416,"test":[0.7370172581]},
{"learn":[0.7648710389],"iteration":72,"passed_time":7.400149036,"remaining_time":43.28580327,"test":[0.7363849462]},
{"learn":[0.7644685286],"iteration":73,"passed_time":7.467866968,"remaining_time":42.99069363,"test":[0.7358327546]},
{"learn":[0.7639867609],"iteration":74,"passed_time":7.531353994,"remaining_time":42.67767263,"test":[0.7356165167]},
{"learn":[0.7635832852],"iteration":75,"passed_time":7.590165127,"remaining_time":42.34513176,"test":[0.7349066543]},
{"learn":[0.7634056637],"iteration":76,"passed_time":7.649293152,"remaining_time":42.0214416,"test":[0.7347599105]},
{"learn":[0.7632715873],"iteration":77,"passed_time":7.709410024,"remaining_time":41.709885,"test":[0.7346759251]},
{"learn":[0.7629666123],"iteration":78,"passed_time":7.766364359,"remaining_time":41.38784045,"test":[0.7344342154]},
{"learn":[0.7624696333],"iteration":79,"passed_time":7.819104071,"remaining_time":41.05029637,"test":[0.734323439]},
{"learn":[0.762189239],"iteration":80,"passed_time":7.873426643,"remaining_time":40.72797239,"test":[0.7341302296]},
{"learn":[0.7619542547],"iteration":81,"passed_time":7.923886952,"remaining_time":40.3924969,"test":[0.7339667404]},
{"learn":[0.7619424209],"iteration":82,"passed_time":7.971958003,"remaining_time":40.05188539,"test":[0.7339640652]},
{"learn":[0.7613588122],"iteration":83,"passed_time":8.02220741,"remaining_time":39.72902717,"test":[0.7331944366]},
{"learn":[0.7603310289],"iteration":84,"passed_time":8.072750754,"remaining_time":39.41401839,"test":[0.7314192047]},
{"learn":[0.7600414985],"iteration":85,"passed_time":8.129249153,"remaining_time":39.13382732,"test":[0.731131172]},
{"learn":[0.7598122662],"iteration":86,"passed_time":8.179243231,"remaining_time":38.82790177,"test":[0.7309708991]},
{"learn":[0.7593673383],"iteration":87,"passed_time":8.232058866,"remaining_time":38.54100287,"test":[0.7308396655]},
{"learn":[0.7588288511],"iteration":88,"passed_time":8.290640207,"remaining_time":38.28599017,"test":[0.7300644455]},
{"learn":[0.7584732016],"iteration":89,"passed_time":8.343941872,"remaining_time":38.01129075,"test":[0.7297686675]},
{"learn":[0.7581735331],"iteration":90,"passed_time":8.400746528,"remaining_time":37.75720143,"test":[0.7297278568]},
{"learn":[0.7577311347],"iteration":91,"passed_time":8.456676498,"remaining_time":37.50352186,"test":[0.7289874235]},
{"learn":[0.7568652986],"iteration":92,"passed_time":8.513137952,"remaining_time":37.25642093,"test":[0.7272034702]},
{"learn":[0.7567727638],"iteration":93,"passed_time":8.582047661,"remaining_time":37.06714203,"test":[0.7272471086]},
{"learn":[0.7565773162],"iteration":94,"passed_time":8.629041203,"remaining_time":36.78696513,"test":[0.727108247]},
{"learn":[0.7563689667],"iteration":95,"passed_time":8.680526327,"remaining_time":36.53054829,"test":[0.726572649]},
{"learn":[0.7559763098],"iteration":96,"passed_time":8.739520511,"remaining_time":36.30955429,"test":[0.7263109786]},
{"learn":[0.755650315],"iteration":97,"passed_time":8.789501898,"remaining_time":36.05489554,"test":[0.7262989008]},
{"learn":[0.7553725929],"iteration":98,"passed_time":8.837054877,"remaining_time":35.79453541,"test":[0.7259214413]},
{"learn":[0.7550152106],"iteration":99,"passed_time":8.889374607,"remaining_time":35.55749843,"test":[0.7255622563]},
{"learn":[0.7543705212],"iteration":100,"passed_time":8.939552753,"remaining_time":35.31565889,"test":[0.7248445765]},
{"learn":[0.7541852108],"iteration":101,"passed_time":8.988159907,"remaining_time":35.07144748,"test":[0.7247951976]},
{"learn":[0.754009945],"iteration":102,"passed_time":9.035542689,"remaining_time":34.82631502,"test":[0.7247595131]},
{"learn":[0.753959861],"iteration":103,"passed_time":9.082554243,"remaining_time":34.58357193,"test":[0.7247972043]},
{"learn":[0.7533857557],"iteration":104,"passed_time":9.134060313,"remaining_time":34.36146499,"test":[0.723503955]},
{"learn":[0.7532757636],"iteration":105,"passed_time":9.182607379,"remaining_time":34.13157837,"test":[0.7235406319]},
{"learn":[0.7526776296],"iteration":106,"passed_time":9.227623613,"remaining_time":33.8921129,"test":[0.7228771299]},
{"learn":[0.752311495],"iteration":107,"passed_time":9.278442873,"remaining_time":33.67731117,"test":[0.7221322345]},
{"learn":[0.752066179],"iteration":108,"passed_time":9.333603567,"remaining_time":33.48109169,"test":[0.7221871089]},
{"learn":[0.7517684793],"iteration":109,"passed_time":9.39268516,"remaining_time":33.3013383,"test":[0.7219705989]},
{"learn":[0.7515896795],"iteration":110,"passed_time":9.444387478,"remaining_time":33.09789846,"test":[0.7219833145]},
{"learn":[0.7511295085],"iteration":111,"passed_time":9.493321076,"remaining_time":32.88757659,"test":[0.7209554027]},
{"learn":[0.7509489653],"iteration":112,"passed_time":9.539110039,"remaining_time":32.66934146,"test":[0.7208961072]},
{"learn":[0.7507367468],"iteration":113,"passed_time":9.604022379,"remaining_time":32.51888279,"test":[0.720813618]},
{"learn":[0.7506397834],"iteration":114,"passed_time":9.6658976,"remaining_time":32.35974414,"test":[0.7204553911]},
{"learn":[0.750089882],"iteration":115,"passed_time":9.724948244,"remaining_time":32.19293212,"test":[0.7194193896]},
{"learn":[0.7496998444],"iteration":116,"passed_time":9.785880653,"remaining_time":32.03412214,"test":[0.7190513342]},
{"learn":[0.7496069176],"iteration":117,"passed_time":9.845367858,"remaining_time":31.87229256,"test":[0.718991508]},
{"learn":[0.7493471331],"iteration":118,"passed_time":9.895868961,"remaining_time":31.68341239,"test":[0.718775904]},
{"learn":[0.7492718042],"iteration":119,"passed_time":9.947538179,"remaining_time":31.50053757,"test":[0.7187606489]},
{"learn":[0.7491355045],"iteration":120,"passed_time":9.995843996,"remaining_time":31.30929648,"test":[0.7187928198]},
{"learn":[0.7489023671],"iteration":121,"passed_time":10.04320306,"remaining_time":31.11746522,"test":[0.7187289388]},
{"learn":[0.7488324053],"iteration":122,"passed_time":10.09412021,"remaining_time":30.93888876,"test":[0.71863824]},
{"learn":[0.7487482411],"iteration":123,"passed_time":10.15793784,"remaining_time":30.80148892,"test":[0.7186106922]},
{"learn":[0.7485051345],"iteration":124,"passed_time":10.20559607,"remaining_time":30.61678821,"test":[0.7184731538]},
{"learn":[0.7481507452],"iteration":125,"passed_time":10.25639599,"remaining_time":30.44358809,"test":[0.7180665394]},
{"learn":[0.7480138443],"iteration":126,"passed_time":10.32656169,"remaining_time":30.32919301,"test":[0.7179920498]},
{"learn":[0.7474998191],"iteration":127,"passed_time":10.38107471,"remaining_time":30.16999836,"test":[0.7165787427]},
{"learn":[0.7473048061],"iteration":128,"passed_time":10.44057464,"remaining_time":30.02676893,"test":[0.7165389214]},
{"learn":[0.7471307575],"iteration":129,"passed_time":10.49411459,"remaining_time":29.8678646,"test":[0.7163909723]},
{"learn":[0.7467243544],"iteration":130,"passed_time":10.5458979,"remaining_time":29.7056208,"test":[0.7158809019]},
{"learn":[0.7461244751],"iteration":131,"passed_time":10.60519034,"remaining_time":29.56598519,"test":[0.7146016304]},
{"learn":[0.7458451564],"iteration":132,"passed_time":10.67362962,"remaining_time":29.45279754,"test":[0.7145629549]},
{"learn":[0.7451449119],"iteration":133,"passed_time":10.72668461,"remaining_time":29.29825796,"test":[0.7134813906]},
{"learn":[0.7449906671],"iteration":134,"passed_time":10.77916497,"remaining_time":29.14366825,"test":[0.7133918517]},
{"learn":[0.7447965396],"iteration":135,"passed_time":10.82960433,"remaining_time":28.98511748,"test":[0.7134316953]},
{"learn":[0.7438436689],"iteration":136,"passed_time":10.88093558,"remaining_time":28.83050814,"test":[0.7111847553]},
{"learn":[0.7437789638],"iteration":137,"passed_time":10.92618245,"remaining_time":28.66143511,"test":[0.7111925159]},
{"learn":[0.7433218171],"iteration":138,"passed_time":10.96861342,"remaining_time":28.48683054,"test":[0.7108711754]},
{"learn":[0.7429743995],"iteration":139,"passed_time":11.01430271,"remaining_time":28.32249268,"test":[0.7106048026]},
{"learn":[0.7427877234],"iteration":140,"passed_time":11.06318124,"remaining_time":28.16795791,"test":[0.7106147581]},
{"learn":[0.7425871684],"iteration":141,"passed_time":11.12718451,"remaining_time":28.05304264,"test":[0.710250248]},
{"learn":[0.7424205798],"iteration":142,"passed_time":11.17870347,"remaining_time":27.9076723,"test":[0.7100567412]},
{"learn":[0.7418297136],"iteration":143,"passed_time":11.23175483,"remaining_time":27.76739388,"test":[0.7091006877]},
{"learn":[0.7413903813],"iteration":144,"passed_time":11.27793896,"remaining_time":27.61150573,"test":[0.7089346268]},
{"learn":[0.7411546145],"iteration":145,"passed_time":11.32558575,"remaining_time":27.46066681,"test":[0.7088367246]},
{"learn":[0.7410319571],"iteration":146,"passed_time":11.3787213,"remaining_time":27.32441237,"test":[0.7088440618]},
{"learn":[0.740581941],"iteration":147,"passed_time":11.42789811,"remaining_time":27.17986578,"test":[0.7076324918]},
{"learn":[0.7404545747],"iteration":148,"passed_time":11.47656132,"remaining_time":27.03538943,"test":[0.7076363912]},
{"learn":[0.7402225704],"iteration":149,"passed_time":11.52137551,"remaining_time":26.88320953,"test":[0.7075512488]},
{"learn":[0.7399305704],"iteration":150,"passed_time":11.56521043,"remaining_time":26.73018836,"test":[0.7070355876]},
{"learn":[0.7398742924],"iteration":151,"passed_time":11.63358151,"remaining_time":26.63477872,"test":[0.7070160465]},
{"learn":[0.7397987175],"iteration":152,"passed_time":11.69924166,"remaining_time":26.53357422,"test":[0.7070066834]},
{"learn":[0.739771434],"iteration":153,"passed_time":11.77968707,"remaining_time":26.46605018,"test":[0.7069997455]},
{"learn":[0.7396471068],"iteration":154,"passed_time":11.85275732,"remaining_time":26.38194371,"test":[0.706997963]},
{"learn":[0.7395593733],"iteration":155,"passed_time":11.92772868,"remaining_time":26.30217094,"test":[0.7069909826]},
{"learn":[0.7393868896],"iteration":156,"passed_time":11.99785291,"remaining_time":26.21186974,"test":[0.7069961319]},
{"learn":[0.7392354133],"iteration":157,"passed_time":12.06387969,"remaining_time":26.11295478,"test":[0.7070854695]},
{"learn":[0.738798304],"iteration":158,"passed_time":12.12927197,"remaining_time":26.01309272,"test":[0.7071305349]},
{"learn":[0.7386740823],"iteration":159,"passed_time":12.19113266,"remaining_time":25.90615691,"test":[0.7071295383]},
{"learn":[0.7384027107],"iteration":160,"passed_time":12.24757113,"remaining_time":25.78836405,"test":[0.7071188542]},
{"learn":[0.738269674],"iteration":161,"passed_time":12.3043184,"remaining_time":25.67197296,"test":[0.7071894328]},
{"learn":[0.7378616484],"iteration":162,"passed_time":12.3562739,"remaining_time":25.54640677,"test":[0.7072119402]},
{"learn":[0.7375734629],"iteration":163,"passed_time":12.4052785,"remaining_time":25.41569254,"test":[0.7071776844]},
{"learn":[0.7374917954],"iteration":164,"passed_time":12.45574915,"remaining_time":25.28894525,"test":[0.7071696275]},
{"learn":[0.7371138598],"iteration":165,"passed_time":12.50228468,"remaining_time":25.15519929,"test":[0.7069506219]},
{"learn":[0.7366402397],"iteration":166,"passed_time":12.54686224,"remaining_time":25.01859358,"test":[0.706392075]},
{"learn":[0.7365056887],"iteration":167,"passed_time":12.59216631,"remaining_time":24.88451913,"test":[0.7065083216]},
{"learn":[0.7364444985],"iteration":168,"passed_time":12.63499194,"remaining_time":24.74664101,"test":[0.7063942783]},
{"learn":[0.7363015456],"iteration":169,"passed_time":12.68044696,"remaining_time":24.61498527,"test":[0.7063919889]},
{"learn":[0.7361454155],"iteration":170,"passed_time":12.72371071,"remaining_time":24.48012178,"test":[0.7063724228]},
{"learn":[0.735951392],"iteration":171,"passed_time":12.76556626,"remaining_time":24.34363799,"test":[0.7062092088]},
{"learn":[0.7356259968],"iteration":172,"passed_time":12.80835141,"remaining_time":24.21000527,"test":[0.7054431877]},
{"learn":[0.7354880442],"iteration":173,"passed_time":12.85992622,"remaining_time":24.09388475,"test":[0.7053584301]},
{"learn":[0.7347384935],"iteration":174,"passed_time":12.90129262,"remaining_time":23.95954344,"test":[0.7036454052]},
{"learn":[0.7345278077],"iteration":175,"passed_time":12.94519608,"remaining_time":23.83092915,"test":[0.7035606834]},
{"learn":[0.7343848043],"iteration":176,"passed_time":12.98909109,"remaining_time":23.70325663,"test":[0.7034365927]},
{"learn":[0.7341827303],"iteration":177,"passed_time":13.03124635,"remaining_time":23.57337823,"test":[0.7033897907]},
{"learn":[0.733939362],"iteration":178,"passed_time":13.08275087,"remaining_time":23.46124597,"test":[0.7031906993]},
{"learn":[0.733694896],"iteration":179,"passed_time":13.13609539,"remaining_time":23.35305847,"test":[0.7031118795]},
{"learn":[0.7335737965],"iteration":180,"passed_time":13.18038373,"remaining_time":23.22951608,"test":[0.703155575]},
{"learn":[0.7332051368],"iteration":181,"passed_time":13.22172486,"remaining_time":23.10169509,"test":[0.7030514972]},
{"learn":[0.7330909941],"iteration":182,"passed_time":13.26349262,"remaining_time":22.97555826,"test":[0.7030291049]},
{"learn":[0.7329266693],"iteration":183,"passed_time":13.30611193,"remaining_time":22.85180092,"test":[0.7028963825]},
{"learn":[0.7327026156],"iteration":184,"passed_time":13.34954135,"remaining_time":22.73030014,"test":[0.7028181818]},
{"learn":[0.7326231352],"iteration":185,"passed_time":13.39968153,"remaining_time":22.62096774,"test":[0.7027331569]},
{"learn":[0.7323815007],"iteration":186,"passed_time":13.45129383,"remaining_time":22.51473246,"test":[0.7027758296]},
{"learn":[0.7321540281],"iteration":187,"passed_time":13.51136837,"remaining_time":22.42312198,"test":[0.7027403723]},
{"learn":[0.7320532409],"iteration":188,"passed_time":13.56566471,"remaining_time":22.32233716,"test":[0.7025842155]},
{"learn":[0.731497712],"iteration":189,"passed_time":13.61643062,"remaining_time":22.21628154,"test":[0.7022801571]},
{"learn":[0.7313429201],"iteration":190,"passed_time":13.66557494,"remaining_time":22.10818145,"test":[0.7020925416]},
{"learn":[0.7310783445],"iteration":191,"passed_time":13.71841196,"remaining_time":22.00661919,"test":[0.7019049334]},
{"learn":[0.7309530142],"iteration":192,"passed_time":13.77535786,"remaining_time":21.91209774,"test":[0.7019621703]},
{"learn":[0.7309032463],"iteration":193,"passed_time":13.83993391,"remaining_time":21.82999885,"test":[0.7018366491]},
{"learn":[0.7304242275],"iteration":194,"passed_time":13.89545758,"remaining_time":21.73392082,"test":[0.7011521038]},
{"learn":[0.7302936156],"iteration":195,"passed_time":13.94977061,"remaining_time":21.63637891,"test":[0.7011478325]},
{"learn":[0.7301982167],"iteration":196,"passed_time":14.00215978,"remaining_time":21.53631682,"test":[0.7010782684]},
{"learn":[0.730152693],"iteration":197,"passed_time":14.05886681,"remaining_time":21.4433221,"test":[0.7011323383]},
{"learn":[0.7299448427],"iteration":198,"passed_time":14.11641551,"remaining_time":21.35196516,"test":[0.7010779726]},
{"learn":[0.7295746319],"iteration":199,"passed_time":14.17001408,"remaining_time":21.25502112,"test":[0.7004502485]},
{"learn":[0.7292393948],"iteration":200,"passed_time":14.2243395,"remaining_time":21.1595896,"test":[0.699858745]},
{"learn":[0.7292145318],"iteration":201,"passed_time":14.27633395,"remaining_time":21.06112633,"test":[0.6998247471]},
{"learn":[0.7291466277],"iteration":202,"passed_time":14.32249105,"remaining_time":20.95458051,"test":[0.6998092768]},
{"learn":[0.7291202577],"iteration":203,"passed_time":14.36800681,"remaining_time":20.84769616,"test":[0.6998273744]},
{"learn":[0.7289874011],"iteration":204,"passed_time":14.41432239,"remaining_time":20.74256149,"test":[0.6997726341]},
{"learn":[0.7288296145],"iteration":205,"passed_time":14.46612116,"remaining_time":20.6458234,"test":[0.6997700938]},
{"learn":[0.7284595055],"iteration":206,"passed_time":14.50922988,"remaining_time":20.53721911,"test":[0.6994249699]},
{"learn":[0.7283343034],"iteration":207,"passed_time":14.55192613,"remaining_time":20.42866552,"test":[0.6993646933]},
{"learn":[0.7282345346],"iteration":208,"passed_time":14.59708174,"remaining_time":20.32416644,"test":[0.6991086843]},
{"learn":[0.728064608],"iteration":209,"passed_time":14.64230286,"remaining_time":20.220323,"test":[0.6991014816]},
{"learn":[0.7279874641],"iteration":210,"passed_time":14.68707262,"remaining_time":20.116417,"test":[0.6991069314]},
{"learn":[0.7278918612],"iteration":211,"passed_time":14.72985977,"remaining_time":20.01037554,"test":[0.6990274594]},
{"learn":[0.7272560316],"iteration":212,"passed_time":14.76983206,"remaining_time":19.90113522,"test":[0.6978286203]},
{"learn":[0.7270451143],"iteration":213,"passed_time":14.81113108,"remaining_time":19.79431537,"test":[0.6979397921]},
{"learn":[0.7268551637],"iteration":214,"passed_time":14.85759838,"remaining_time":19.69495599,"test":[0.6979009968]},
{"learn":[0.7267106476],"iteration":215,"passed_time":14.90412691,"remaining_time":19.59616686,"test":[0.6979237924]},
{"learn":[0.726469256],"iteration":216,"passed_time":14.95123032,"remaining_time":19.49860913,"test":[0.6979111801]},
{"learn":[0.7262866799],"iteration":217,"passed_time":15.00335994,"remaining_time":19.40801607,"test":[0.6978869632]},
{"learn":[0.7260870006],"iteration":218,"passed_time":15.05414219,"remaining_time":19.31604546,"test":[0.6979011749]},
{"learn":[0.7257716186],"iteration":219,"passed_time":15.10858364,"remaining_time":19.22910646,"test":[0.6977618015]},
{"learn":[0.7255689839],"iteration":220,"passed_time":15.15714502,"remaining_time":19.13503829,"test":[0.6977852717]},
{"learn":[0.7254624433],"iteration":221,"passed_time":15.20822199,"remaining_time":19.04453023,"test":[0.6977985014]},
{"learn":[0.7254289478],"iteration":222,"passed_time":15.25648045,"remaining_time":18.95087482,"test":[0.6977946917]},
{"learn":[0.7253309534],"iteration":223,"passed_time":15.31035857,"remaining_time":18.86454896,"test":[0.6977968316]},
{"learn":[0.7252381034],"iteration":224,"passed_time":15.36165879,"remaining_time":18.77536074,"test":[0.6976590411]},
{"learn":[0.7250406012],"iteration":225,"passed_time":15.40931547,"remaining_time":18.68209043,"test":[0.6976843922]},
{"learn":[0.724802751],"iteration":226,"passed_time":15.45883356,"remaining_time":18.59146063,"test":[0.6976347093]},
{"learn":[0.7246837133],"iteration":227,"passed_time":15.50619844,"remaining_time":18.4986227,"test":[0.6976357053]},
{"learn":[0.7244595349],"iteration":228,"passed_time":15.55610187,"remaining_time":18.40918605,"test":[0.6976100331]},
{"learn":[0.7243154867],"iteration":229,"passed_time":15.6094731,"remaining_time":18.32416407,"test":[0.6975705309]},
{"learn":[0.7240860677],"iteration":230,"passed_time":15.65684681,"remaining_time":18.232432,"test":[0.6974033111]},
{"learn":[0.7240466096],"iteration":231,"passed_time":15.70730893,"remaining_time":18.14464997,"test":[0.6974114229]},
{"learn":[0.7236722851],"iteration":232,"passed_time":15.74868029,"remaining_time":18.04677097,"test":[0.6968809334]},
{"learn":[0.7235549578],"iteration":233,"passed_time":15.79083639,"remaining_time":17.95026701,"test":[0.6969812105]},
{"learn":[0.7233040813],"iteration":234,"passed_time":15.83159721,"remaining_time":17.85265218,"test":[0.6968139825]},
{"learn":[0.7231474003],"iteration":235,"passed_time":15.87685271,"remaining_time":17.7605471,"test":[0.6967102756]},
{"learn":[0.7230247782],"iteration":236,"passed_time":15.91902248,"remaining_time":17.66541313,"test":[0.6964722826]},
{"learn":[0.7222905711],"iteration":237,"passed_time":15.96242336,"remaining_time":17.57207949,"test":[0.6952693352]},
{"learn":[0.7221393524],"iteration":238,"passed_time":16.01662611,"remaining_time":17.4909599,"test":[0.6952678651]},
{"learn":[0.7219289735],"iteration":239,"passed_time":16.08210154,"remaining_time":17.42227667,"test":[0.6950842584]},
{"learn":[0.721834447],"iteration":240,"passed_time":16.13048169,"remaining_time":17.33524796,"test":[0.6951599485]},
{"learn":[0.7216147942],"iteration":241,"passed_time":16.17412655,"remaining_time":17.24349029,"test":[0.6951516389]},
{"learn":[0.7214931415],"iteration":242,"passed_time":16.21829304,"remaining_time":17.15268029,"test":[0.6950471277]},
{"learn":[0.7214128875],"iteration":243,"passed_time":16.26256249,"remaining_time":17.06236065,"test":[0.6949881788]},
{"learn":[0.7212903877],"iteration":244,"passed_time":16.30787164,"remaining_time":16.97349905,"test":[0.6949008431]},
{"learn":[0.7210461728],"iteration":245,"passed_time":16.35530374,"remaining_time":16.88718354,"test":[0.6948759453]},
{"learn":[0.7209128729],"iteration":246,"passed_time":16.40685453,"remaining_time":16.80540161,"test":[0.6947608845]},
{"learn":[0.7208284307],"iteration":247,"passed_time":16.45449707,"remaining_time":16.71989219,"test":[0.6947502738]},
{"learn":[0.7207185674],"iteration":248,"passed_time":16.50344341,"remaining_time":16.63600119,"test":[0.6947716931]},
{"learn":[0.7206560747],"iteration":249,"passed_time":16.57898957,"remaining_time":16.57898957,"test":[0.6948039053]},
{"learn":[0.7204645311],"iteration":250,"passed_time":16.6414109,"remaining_time":16.50881001,"test":[0.694628806]},
{"learn":[0.720130932],"iteration":251,"passed_time":16.69599956,"remaining_time":16.4309837,"test":[0.6944603094]},
{"learn":[0.7200577862],"iteration":252,"passed_time":16.76815148,"remaining_time":16.37048781,"test":[0.6944926318]},
{"learn":[0.7200073102],"iteration":253,"passed_time":16.83642017,"remaining_time":16.30613922,"test":[0.6945257068]},
{"learn":[0.7199189716],"iteration":254,"passed_time":16.91138113,"remaining_time":16.24818971,"test":[0.6945523981]},
{"learn":[0.719697],"iteration":255,"passed_time":16.97742219,"remaining_time":16.18160552,"test":[0.6942432038]},
{"learn":[0.7194360665],"iteration":256,"passed_time":17.05447306,"remaining_time":16.12543562,"test":[0.69409117]},
{"learn":[0.7192961861],"iteration":257,"passed_time":17.11461168,"remaining_time":16.05324041,"test":[0.6940023479]},
{"learn":[0.719129611],"iteration":258,"passed_time":17.1782037,"remaining_time":15.9843517,"test":[0.6939084169]},
{"learn":[0.7190921209],"iteration":259,"passed_time":17.2438493,"remaining_time":15.91739935,"test":[0.6939076977]},
{"learn":[0.7188607815],"iteration":260,"passed_time":17.29986659,"remaining_time":15.84164029,"test":[0.693931118]},
{"learn":[0.7188122511],"iteration":261,"passed_time":17.35301706,"remaining_time":15.76342771,"test":[0.6938242078]},
{"learn":[0.7186334851],"iteration":262,"passed_time":17.41371159,"remaining_time":15.69220398,"test":[0.6936716861]},
{"learn":[0.7184278711],"iteration":263,"passed_time":17.48007217,"remaining_time":15.62612512,"test":[0.6936651169]},
{"learn":[0.7183183653],"iteration":264,"passed_time":17.54717398,"remaining_time":15.56070146,"test":[0.6936574287]},
{"learn":[0.7182250659],"iteration":265,"passed_time":17.61488052,"remaining_time":15.49579714,"test":[0.6935936725]},
{"learn":[0.7181592091],"iteration":266,"passed_time":17.68975611,"remaining_time":15.43712799,"test":[0.6935953822]},
{"learn":[0.7179739226],"iteration":267,"passed_time":17.76344485,"remaining_time":15.37731046,"test":[0.6935774946]},
{"learn":[0.7177993166],"iteration":268,"passed_time":17.83156091,"remaining_time":15.31260435,"test":[0.6934810065]},
{"learn":[0.7176777939],"iteration":269,"passed_time":17.89376942,"remaining_time":15.24284062,"test":[0.6935144487]},
{"learn":[0.7176240401],"iteration":270,"passed_time":17.94991822,"remaining_time":15.16801208,"test":[0.6935126544]},
{"learn":[0.7175505069],"iteration":271,"passed_time":18.0156075,"remaining_time":15.10131805,"test":[0.6933915812]},
{"learn":[0.7173768554],"iteration":272,"passed_time":18.07880026,"remaining_time":15.03255553,"test":[0.6933703798]},
{"learn":[0.7173258181],"iteration":273,"passed_time":18.14908388,"remaining_time":14.96968232,"test":[0.6934294088]},
{"learn":[0.7172702475],"iteration":274,"passed_time":18.21201863,"remaining_time":14.90074251,"test":[0.6934119897]},
{"learn":[0.7171931428],"iteration":275,"passed_time":18.26919197,"remaining_time":14.82717029,"test":[0.693348699]},
{"learn":[0.717042925],"iteration":276,"passed_time":18.32545451,"remaining_time":14.75298324,"test":[0.6933264664]},
{"learn":[0.7168152803],"iteration":277,"passed_time":18.38012284,"remaining_time":14.67765205,"test":[0.6933727403]},
{"learn":[0.7166643919],"iteration":278,"passed_time":18.43300258,"remaining_time":14.60105222,"test":[0.6933966103]},
{"learn":[0.7166381076],"iteration":279,"passed_time":18.48967782,"remaining_time":14.527604,"test":[0.6933960645]},
{"learn":[0.7164931866],"iteration":280,"passed_time":18.54227813,"remaining_time":14.45109932,"test":[0.6934362577]},
{"learn":[0.7162707955],"iteration":281,"passed_time":18.59325051,"remaining_time":14.37350572,"test":[0.6933863451]},
{"learn":[0.7159379242],"iteration":282,"passed_time":18.64522399,"remaining_time":14.29686787,"test":[0.6932787629]},
{"learn":[0.7156806429],"iteration":283,"passed_time":18.70371235,"remaining_time":14.22535869,"test":[0.6932730762]},
{"learn":[0.7153628543],"iteration":284,"passed_time":18.76028007,"remaining_time":14.15249198,"test":[0.6927796434]},
{"learn":[0.7152142262],"iteration":285,"passed_time":18.80956341,"remaining_time":14.07428871,"test":[0.69276195]},
{"learn":[0.7151535497],"iteration":286,"passed_time":18.8557419,"remaining_time":13.99398267,"test":[0.6927546225]},
{"learn":[0.7150488403],"iteration":287,"passed_time":18.902336,"remaining_time":13.91421955,"test":[0.6927052455]},
{"learn":[0.7148571223],"iteration":288,"passed_time":18.95114317,"remaining_time":13.83630176,"test":[0.6927057576]},
{"learn":[0.7147413723],"iteration":289,"passed_time":18.99713932,"remaining_time":13.75654916,"test":[0.692692454]},
{"learn":[0.7146702055],"iteration":290,"passed_time":19.04588589,"remaining_time":13.67900396,"test":[0.6927218739]},
{"learn":[0.7146125228],"iteration":291,"passed_time":19.10528499,"remaining_time":13.6092441,"test":[0.6926970723]},
{"learn":[0.714462974],"iteration":292,"passed_time":19.14976749,"remaining_time":13.52901662,"test":[0.6927425322]},
{"learn":[0.7143533646],"iteration":293,"passed_time":19.19769679,"remaining_time":13.45144741,"test":[0.6927087804]},
{"learn":[0.7141551927],"iteration":294,"passed_time":19.24299788,"remaining_time":13.37225277,"test":[0.6926789391]},
{"learn":[0.7139311006],"iteration":295,"passed_time":19.28986667,"remaining_time":13.29436757,"test":[0.6926739995]},
{"learn":[0.7138092949],"iteration":296,"passed_time":19.33771348,"remaining_time":13.21735972,"test":[0.6926623979]},
{"learn":[0.7135292912],"iteration":297,"passed_time":19.38422138,"remaining_time":13.13964,"test":[0.6928141623]},
{"learn":[0.7134116531],"iteration":298,"passed_time":19.431033,"remaining_time":13.06233322,"test":[0.6927899489]},
{"learn":[0.7131614856],"iteration":299,"passed_time":19.47729564,"remaining_time":12.98486376,"test":[0.6928437276]},
{"learn":[0.7129809846],"iteration":300,"passed_time":19.52332556,"remaining_time":12.90744779,"test":[0.6929021639]},
{"learn":[0.7128822072],"iteration":301,"passed_time":19.57240728,"remaining_time":12.83224053,"test":[0.692923748]},
{"learn":[0.7125437606],"iteration":302,"passed_time":19.61774561,"remaining_time":12.7547719,"test":[0.6927507553]},
{"learn":[0.7123654164],"iteration":303,"passed_time":19.66612221,"remaining_time":12.67947353,"test":[0.6927063565]},
{"learn":[0.7122108314],"iteration":304,"passed_time":19.71132937,"remaining_time":12.60232534,"test":[0.6927333765]},
{"learn":[0.7120679054],"iteration":305,"passed_time":19.76582274,"remaining_time":12.53127324,"test":[0.6926342914]},
{"learn":[0.7117894689],"iteration":306,"passed_time":19.81745394,"remaining_time":12.45852967,"test":[0.6926288665]},
{"learn":[0.7115357255],"iteration":307,"passed_time":19.86310347,"remaining_time":12.38219437,"test":[0.6927127351]},
{"learn":[0.7113571824],"iteration":308,"passed_time":19.90754508,"remaining_time":12.30531104,"test":[0.6927012898]},
{"learn":[0.7112791211],"iteration":309,"passed_time":19.959136,"remaining_time":12.23301884,"test":[0.6926745441]},
{"learn":[0.7111154653],"iteration":310,"passed_time":20.00297058,"remaining_time":12.15614611,"test":[0.6926588921]},
{"learn":[0.7108396447],"iteration":311,"passed_time":20.04949395,"remaining_time":12.08110533,"test":[0.6925469341]},
{"learn":[0.7105907586],"iteration":312,"passed_time":20.09620629,"remaining_time":12.00635967,"test":[0.6925028035]},
{"learn":[0.7103708828],"iteration":313,"passed_time":20.13641668,"remaining_time":11.92794109,"test":[0.6925591381]},
{"learn":[0.71029608],"iteration":314,"passed_time":20.17613568,"remaining_time":11.84947651,"test":[0.6924829622]},
{"learn":[0.7101124935],"iteration":315,"passed_time":20.2130614,"remaining_time":11.76963069,"test":[0.6923964121]},
{"learn":[0.7100444969],"iteration":316,"passed_time":20.25210944,"remaining_time":11.69128084,"test":[0.6924367154]},
{"learn":[0.7099952348],"iteration":317,"passed_time":20.29461212,"remaining_time":11.61515537,"test":[0.692415294]},
{"learn":[0.7098906779],"iteration":318,"passed_time":20.33234572,"remaining_time":11.53653472,"test":[0.6924522166]},
{"learn":[0.7097679738],"iteration":319,"passed_time":20.37403629,"remaining_time":11.46039541,"test":[0.6924458492]},
{"learn":[0.7096019968],"iteration":320,"passed_time":20.41864375,"remaining_time":11.38609729,"test":[0.6924622796]},
{"learn":[0.709430819],"iteration":321,"passed_time":20.46057506,"remaining_time":11.31050422,"test":[0.6925425136]},
{"learn":[0.7093460132],"iteration":322,"passed_time":20.5036757,"remaining_time":11.23576037,"test":[0.6923766215]},
{"learn":[0.7091118645],"iteration":323,"passed_time":20.54590038,"remaining_time":11.16073601,"test":[0.6922683853]},
{"learn":[0.7090956101],"iteration":324,"passed_time":20.58730938,"remaining_time":11.08547428,"test":[0.6922704831]},
{"learn":[0.7089308075],"iteration":325,"passed_time":20.63313977,"remaining_time":11.01278012,"test":[0.6922662225]},
{"learn":[0.7087170788],"iteration":326,"passed_time":20.68857706,"remaining_time":10.94533282,"test":[0.6921231542]},
{"learn":[0.7085007498],"iteration":327,"passed_time":20.74322478,"remaining_time":10.8775447,"test":[0.6921284351]},
{"learn":[0.7081463446],"iteration":328,"passed_time":20.79308254,"remaining_time":10.80734685,"test":[0.6922992088]},
{"learn":[0.7081090337],"iteration":329,"passed_time":20.85009466,"remaining_time":10.74095785,"test":[0.6922949054]},
{"learn":[0.7079675087],"iteration":330,"passed_time":20.90497222,"remaining_time":10.67353567,"test":[0.6923392]},
{"learn":[0.7077948098],"iteration":331,"passed_time":20.95379793,"remaining_time":10.60312666,"test":[0.6924171545]},
{"learn":[0.707590308],"iteration":332,"passed_time":21.0036903,"remaining_time":10.53338222,"test":[0.692423647]},
{"learn":[0.7075403436],"iteration":333,"passed_time":21.05492374,"remaining_time":10.46442317,"test":[0.6924305008]},
{"learn":[0.7074658399],"iteration":334,"passed_time":21.10912621,"remaining_time":10.39703231,"test":[0.6925554214]},
{"learn":[0.7073996357],"iteration":335,"passed_time":21.15594873,"remaining_time":10.32611783,"test":[0.6925022574]},
{"learn":[0.7073401858],"iteration":336,"passed_time":21.20318418,"remaining_time":10.25554606,"test":[0.6924945055]},
{"learn":[0.7071292389],"iteration":337,"passed_time":21.2454999,"remaining_time":10.18275439,"test":[0.6923256211]},
{"learn":[0.7069180012],"iteration":338,"passed_time":21.2887476,"remaining_time":10.11058514,"test":[0.6921370501]},
{"learn":[0.7066091336],"iteration":339,"passed_time":21.32930418,"remaining_time":10.03731961,"test":[0.6913524409]},
{"learn":[0.7064199716],"iteration":340,"passed_time":21.37162996,"remaining_time":9.965070861,"test":[0.6913810219]},
{"learn":[0.7060729897],"iteration":341,"passed_time":21.41611155,"remaining_time":9.893993055,"test":[0.6912792242]},
{"learn":[0.7059455905],"iteration":342,"passed_time":21.46265481,"remaining_time":9.824014008,"test":[0.6910351845]},
{"learn":[0.7056730611],"iteration":343,"passed_time":21.51840263,"remaining_time":9.75834538,"test":[0.6908642564]},
{"learn":[0.7054678488],"iteration":344,"passed_time":21.56939023,"remaining_time":9.690595612,"test":[0.6906569366]},
{"learn":[0.7052792067],"iteration":345,"passed_time":21.62141341,"remaining_time":9.623403659,"test":[0.6905483512]},
{"learn":[0.7052142325],"iteration":346,"passed_time":21.67525889,"remaining_time":9.557102622,"test":[0.690499244]},
{"learn":[0.7051705136],"iteration":347,"passed_time":21.73053441,"remaining_time":9.49149779,"test":[0.6905428872]},
{"learn":[0.7050339951],"iteration":348,"passed_time":21.78396,"remaining_time":9.42515175,"test":[0.6904803709]},
{"learn":[0.7048341758],"iteration":349,"passed_time":21.83865075,"remaining_time":9.359421748,"test":[0.6905032738]},
{"learn":[0.7047553918],"iteration":350,"passed_time":21.89909779,"remaining_time":9.296198205,"test":[0.6905650511]},
{"learn":[0.7046959179],"iteration":351,"passed_time":21.95417656,"remaining_time":9.230733324,"test":[0.6905721907]},
{"learn":[0.704633248],"iteration":352,"passed_time":22.01069803,"remaining_time":9.165928074,"test":[0.690580408]},
{"learn":[0.7045278035],"iteration":353,"passed_time":22.07346642,"remaining_time":9.103746036,"test":[0.6905101624]},
{"learn":[0.7044344885],"iteration":354,"passed_time":22.13975645,"remaining_time":9.042999112,"test":[0.6904952125]},
{"learn":[0.704096897],"iteration":355,"passed_time":22.19285255,"remaining_time":8.976884178,"test":[0.6900567754]},
{"learn":[0.7039576479],"iteration":356,"passed_time":22.24392764,"remaining_time":8.910032642,"test":[0.6900736742]},
{"learn":[0.7038583098],"iteration":357,"passed_time":22.29266224,"remaining_time":8.842340889,"test":[0.6901039855]},
{"learn":[0.7036887023],"iteration":358,"passed_time":22.34439097,"remaining_time":8.775930716,"test":[0.6902125753]},
{"learn":[0.7036138937],"iteration":359,"passed_time":22.38923707,"remaining_time":8.706925528,"test":[0.6901486334]},
{"learn":[0.703453727],"iteration":360,"passed_time":22.44268515,"remaining_time":8.641366306,"test":[0.6902127554]},
{"learn":[0.7033543267],"iteration":361,"passed_time":22.50042471,"remaining_time":8.577509973,"test":[0.6902475171]},
{"learn":[0.7031849816],"iteration":362,"passed_time":22.5653242,"remaining_time":8.516389575,"test":[0.690077953]},
{"learn":[0.70296144],"iteration":363,"passed_time":22.62972104,"remaining_time":8.45506061,"test":[0.6899762711]},
{"learn":[0.7028683226],"iteration":364,"passed_time":22.69170925,"remaining_time":8.392823968,"test":[0.6900009506]},
{"learn":[0.7027644577],"iteration":365,"passed_time":22.75050348,"remaining_time":8.329419305,"test":[0.6900080104]},
{"learn":[0.7025667864],"iteration":366,"passed_time":22.80596158,"remaining_time":8.264830762,"test":[0.6899688674]},
{"learn":[0.7022855666],"iteration":367,"passed_time":22.86358517,"remaining_time":8.201068593,"test":[0.6898938585]},
{"learn":[0.7021785525],"iteration":368,"passed_time":22.91998817,"remaining_time":8.13690637,"test":[0.6899273432]},
{"learn":[0.7020106767],"iteration":369,"passed_time":22.97225414,"remaining_time":8.071332536,"test":[0.689934176]},
{"learn":[0.7019213722],"iteration":370,"passed_time":23.02224454,"remaining_time":8.005039206,"test":[0.6899316976]},
{"learn":[0.7017678142],"iteration":371,"passed_time":23.08383965,"remaining_time":7.942826545,"test":[0.6898308138]},
{"learn":[0.7016564268],"iteration":372,"passed_time":23.13580092,"remaining_time":7.877337044,"test":[0.6898889757]},
{"learn":[0.701603996],"iteration":373,"passed_time":23.19187592,"remaining_time":7.813305792,"test":[0.6898989958]},
{"learn":[0.7015614515],"iteration":374,"passed_time":23.24138577,"remaining_time":7.747128588,"test":[0.6897359463]},
{"learn":[0.7014858729],"iteration":375,"passed_time":23.28637979,"remaining_time":7.679550783,"test":[0.6897177765]},
{"learn":[0.7014067279],"iteration":376,"passed_time":23.34016117,"remaining_time":7.614959745,"test":[0.6896093099]},
{"learn":[0.7012681026],"iteration":377,"passed_time":23.38614339,"remaining_time":7.547908712,"test":[0.6895596214]},
{"learn":[0.7011927997],"iteration":378,"passed_time":23.43239715,"remaining_time":7.481055556,"test":[0.6895174613]},
{"learn":[0.7010479633],"iteration":379,"passed_time":23.47584835,"remaining_time":7.413425795,"test":[0.6892765055]},
{"learn":[0.7009042761],"iteration":380,"passed_time":23.52652239,"remaining_time":7.348178908,"test":[0.6892738226]},
{"learn":[0.7008346157],"iteration":381,"passed_time":23.5723375,"remaining_time":7.281507394,"test":[0.6893065602]},
{"learn":[0.7007830706],"iteration":382,"passed_time":23.61868878,"remaining_time":7.215108581,"test":[0.6893259689]},
{"learn":[0.7005763008],"iteration":383,"passed_time":23.66239379,"remaining_time":7.14801479,"test":[0.6891144625]},
{"learn":[0.7004731124],"iteration":384,"passed_time":23.70840082,"remaining_time":7.081730116,"test":[0.6890301118]},
{"learn":[0.7003226133],"iteration":385,"passed_time":23.76345982,"remaining_time":7.018223884,"test":[0.6890239821]},
{"learn":[0.7001535783],"iteration":386,"passed_time":23.80775586,"remaining_time":6.951618637,"test":[0.6889879739]},
{"learn":[0.7000849391],"iteration":387,"passed_time":23.85273886,"remaining_time":6.88532668,"test":[0.6889782731]},
{"learn":[0.699866025],"iteration":388,"passed_time":23.90102667,"remaining_time":6.820087303,"test":[0.6890514031]},
{"learn":[0.6997917103],"iteration":389,"passed_time":23.95014727,"remaining_time":6.755169744,"test":[0.6890420283]},
{"learn":[0.699530567],"iteration":390,"passed_time":23.99569568,"remaining_time":6.689337158,"test":[0.6889312403]},
{"learn":[0.6992550506],"iteration":391,"passed_time":24.04810086,"remaining_time":6.625497175,"test":[0.6888962725]},
{"learn":[0.699156542],"iteration":392,"passed_time":24.09539832,"remaining_time":6.560324733,"test":[0.6888601192]},
{"learn":[0.6988913984],"iteration":393,"passed_time":24.14079608,"remaining_time":6.49473194,"test":[0.6889370975]},
{"learn":[0.6986838608],"iteration":394,"passed_time":24.18602992,"remaining_time":6.429197827,"test":[0.6887842081]},
{"learn":[0.6985600164],"iteration":395,"passed_time":24.23736456,"remaining_time":6.36536847,"test":[0.6888514357]},
{"learn":[0.6982417382],"iteration":396,"passed_time":24.28477826,"remaining_time":6.300584788,"test":[0.6886569176]},
{"learn":[0.6981719125],"iteration":397,"passed_time":24.32772726,"remaining_time":6.234744173,"test":[0.6886479231]},
{"learn":[0.698154197],"iteration":398,"passed_time":24.37129512,"remaining_time":6.169174956,"test":[0.6886482644]},
{"learn":[0.6979790902],"iteration":399,"passed_time":24.4143476,"remaining_time":6.1035869,"test":[0.6886006602]},
{"learn":[0.6977143114],"iteration":400,"passed_time":24.45758799,"remaining_time":6.038157634,"test":[0.6885262281]},
{"learn":[0.6974311284],"iteration":401,"passed_time":24.50241825,"remaining_time":5.97322634,"test":[0.6885172931]},
{"learn":[0.697387766],"iteration":402,"passed_time":24.54493427,"remaining_time":5.907837777,"test":[0.6884992101]},
{"learn":[0.6972812514],"iteration":403,"passed_time":24.59153352,"remaining_time":5.843532717,"test":[0.6884957039]},
{"learn":[0.6971519556],"iteration":404,"passed_time":24.63460751,"remaining_time":5.778488181,"test":[0.6885585214]},
{"learn":[0.6970516672],"iteration":405,"passed_time":24.67884828,"remaining_time":5.713822015,"test":[0.6884728248]},
{"learn":[0.69684507],"iteration":406,"passed_time":24.72581067,"remaining_time":5.649878113,"test":[0.68850116]},
{"learn":[0.6967452932],"iteration":407,"passed_time":24.76874043,"remaining_time":5.585108137,"test":[0.6886069679]},
{"learn":[0.6967145947],"iteration":408,"passed_time":24.81347191,"remaining_time":5.520845829,"test":[0.6886083057]},
{"learn":[0.6965985311],"iteration":409,"passed_time":24.86218375,"remaining_time":5.457552529,"test":[0.6885672593]},
{"learn":[0.6964643019],"iteration":410,"passed_time":24.91582474,"remaining_time":5.395397571,"test":[0.6886121822]},
{"learn":[0.6964007394],"iteration":411,"passed_time":24.96316724,"remaining_time":5.331938634,"test":[0.6886030453]},
{"learn":[0.696274317],"iteration":412,"passed_time":25.00513537,"remaining_time":5.267425611,"test":[0.688692612]},
{"learn":[0.6961928811],"iteration":413,"passed_time":25.05604911,"remaining_time":5.204879767,"test":[0.688667747]},
{"learn":[0.6960383938],"iteration":414,"passed_time":25.10968814,"remaining_time":5.142948173,"test":[0.6887290435]},
{"learn":[0.6958735406],"iteration":415,"passed_time":25.15270806,"remaining_time":5.078912204,"test":[0.688801254]},
{"learn":[0.6957772571],"iteration":416,"passed_time":25.19675801,"remaining_time":5.015182049,"test":[0.6887948863]},
{"learn":[0.6955805633],"iteration":417,"passed_time":25.2477484,"remaining_time":4.952907581,"test":[0.6889938834]},
{"learn":[0.6955251279],"iteration":418,"passed_time":25.29660588,"remaining_time":4.890274645,"test":[0.6889312128]},
{"learn":[0.6953998679],"iteration":419,"passed_time":25.34858489,"remaining_time":4.828301884,"test":[0.6889337091]},
{"learn":[0.6953682508],"iteration":420,"passed_time":25.39261501,"remaining_time":4.764885001,"test":[0.6889517262]},
{"learn":[0.6953144538],"iteration":421,"passed_time":25.43729212,"remaining_time":4.701679586,"test":[0.6889137481]},
{"learn":[0.69524068],"iteration":422,"passed_time":25.48099377,"remaining_time":4.638384208,"test":[0.6888724223]},
{"learn":[0.6951767995],"iteration":423,"passed_time":25.52632368,"remaining_time":4.575473112,"test":[0.6887093831]},
{"learn":[0.6949020215],"iteration":424,"passed_time":25.57032221,"remaining_time":4.512409802,"test":[0.6886450531]},
{"learn":[0.6946503955],"iteration":425,"passed_time":25.61478207,"remaining_time":4.449516135,"test":[0.6885818903]},
{"learn":[0.6945776118],"iteration":426,"passed_time":25.65864411,"remaining_time":4.386606604,"test":[0.6885577147]},
{"learn":[0.6944494632],"iteration":427,"passed_time":25.70460678,"remaining_time":4.324139458,"test":[0.6883593676]},
{"learn":[0.694318406],"iteration":428,"passed_time":25.7522065,"remaining_time":4.262020189,"test":[0.6882004475]},
{"learn":[0.6942250159],"iteration":429,"passed_time":25.80096945,"remaining_time":4.200157818,"test":[0.6881656072]},
{"learn":[0.6941836718],"iteration":430,"passed_time":25.84764655,"remaining_time":4.138022301,"test":[0.6881679136]},
{"learn":[0.6940279998],"iteration":431,"passed_time":25.89922808,"remaining_time":4.076730346,"test":[0.6881738167]},
{"learn":[0.6938794355],"iteration":432,"passed_time":25.94540991,"remaining_time":4.014647723,"test":[0.6881384212]},
{"learn":[0.6937184007],"iteration":433,"passed_time":26.00122878,"remaining_time":3.954103917,"test":[0.6880656491]},
{"learn":[0.6934699861],"iteration":434,"passed_time":26.04956951,"remaining_time":3.892464409,"test":[0.6878993139]},
{"learn":[0.6934308923],"iteration":435,"passed_time":26.10311041,"remaining_time":3.831649235,"test":[0.6878323738]},
{"learn":[0.6933092998],"iteration":436,"passed_time":26.16893609,"remaining_time":3.772638384,"test":[0.6878616374]},
{"learn":[0.6932000174],"iteration":437,"passed_time":26.21436376,"remaining_time":3.710709025,"test":[0.6878494178]},
{"learn":[0.6930263247],"iteration":438,"passed_time":26.26423648,"remaining_time":3.649472494,"test":[0.6876852225]},
{"learn":[0.6929171577],"iteration":439,"passed_time":26.31401297,"remaining_time":3.588274496,"test":[0.6877405296]},
{"learn":[0.692841132],"iteration":440,"passed_time":26.36810004,"remaining_time":3.527704995,"test":[0.6876610834]},
{"learn":[0.692676874],"iteration":441,"passed_time":26.41861846,"remaining_time":3.466696539,"test":[0.6876542424]},
{"learn":[0.6925033549],"iteration":442,"passed_time":26.47992977,"remaining_time":3.407124147,"test":[0.6876946286]},
{"learn":[0.692193589],"iteration":443,"passed_time":26.53410083,"remaining_time":3.346643348,"test":[0.6870325466]},
{"learn":[0.6920589373],"iteration":444,"passed_time":26.58433962,"remaining_time":3.285704897,"test":[0.68700014]},
{"learn":[0.6918151751],"iteration":445,"passed_time":26.63725662,"remaining_time":3.225138694,"test":[0.6870006652]},
{"learn":[0.6916307336],"iteration":446,"passed_time":26.69868795,"remaining_time":3.165616245,"test":[0.6870312256]},
{"learn":[0.6915073552],"iteration":447,"passed_time":26.75370739,"remaining_time":3.105341036,"test":[0.6870793085]},
{"learn":[0.6913363593],"iteration":448,"passed_time":26.81308962,"remaining_time":3.045584789,"test":[0.6868530603]},
{"learn":[0.6910567967],"iteration":449,"passed_time":26.86618096,"remaining_time":2.985131218,"test":[0.6869800604]},
{"learn":[0.6907660587],"iteration":450,"passed_time":26.91725093,"remaining_time":2.924490678,"test":[0.6866833279]},
{"learn":[0.6905821387],"iteration":451,"passed_time":26.96875521,"remaining_time":2.863938607,"test":[0.6865165666]},
{"learn":[0.6902592444],"iteration":452,"passed_time":27.02147193,"remaining_time":2.803552275,"test":[0.6866048265]},
{"learn":[0.6901853954],"iteration":453,"passed_time":27.07303533,"remaining_time":2.743082875,"test":[0.6865849327]},
{"learn":[0.6899617663],"iteration":454,"passed_time":27.12475044,"remaining_time":2.682667626,"test":[0.6866164991]},
{"learn":[0.6898309783],"iteration":455,"passed_time":27.18234239,"remaining_time":2.622857599,"test":[0.6866663286]},
{"learn":[0.6896255818],"iteration":456,"passed_time":27.2299374,"remaining_time":2.562116648,"test":[0.6867065825]},
{"learn":[0.6893572535],"iteration":457,"passed_time":27.27999573,"remaining_time":2.501658997,"test":[0.6863914833]},
{"learn":[0.6892503032],"iteration":458,"passed_time":27.33057717,"remaining_time":2.441293386,"test":[0.686404925]},
{"learn":[0.6890828201],"iteration":459,"passed_time":27.37982137,"remaining_time":2.380854032,"test":[0.6864157264]},
{"learn":[0.6889747334],"iteration":460,"passed_time":27.42590616,"remaining_time":2.320195966,"test":[0.6863874569]},
{"learn":[0.6887530855],"iteration":461,"passed_time":27.47323549,"remaining_time":2.259703352,"test":[0.6863818952]},
{"learn":[0.6886561779],"iteration":462,"passed_time":27.5212234,"remaining_time":2.199320229,"test":[0.686373921]},
{"learn":[0.6884986621],"iteration":463,"passed_time":27.57100062,"remaining_time":2.139129358,"test":[0.6863534965]},
{"learn":[0.6884693056],"iteration":464,"passed_time":27.6173226,"remaining_time":2.078723207,"test":[0.6863746165]},
{"learn":[0.6881852552],"iteration":465,"passed_time":27.66443379,"remaining_time":2.018435083,"test":[0.6864239635]},
{"learn":[0.6881059682],"iteration":466,"passed_time":27.71215543,"remaining_time":1.958246529,"test":[0.6864011064]},
{"learn":[0.6880254423],"iteration":467,"passed_time":27.75955784,"remaining_time":1.898089425,"test":[0.6864172807]},
{"learn":[0.6879000362],"iteration":468,"passed_time":27.80536354,"remaining_time":1.837881172,"test":[0.6864329593]},
{"learn":[0.6877507089],"iteration":469,"passed_time":27.84909038,"remaining_time":1.777601514,"test":[0.6864902803]},
{"learn":[0.6875867862],"iteration":470,"passed_time":27.89158597,"remaining_time":1.717316333,"test":[0.686282566]},
{"learn":[0.6875618781],"iteration":471,"passed_time":27.93367305,"remaining_time":1.6570823,"test":[0.686266579]},
{"learn":[0.6873085955],"iteration":472,"passed_time":27.97826534,"remaining_time":1.597068,"test":[0.6861446227]},
{"learn":[0.687287079],"iteration":473,"passed_time":28.03238895,"remaining_time":1.537641588,"test":[0.6861457891]},
{"learn":[0.6872140329],"iteration":474,"passed_time":28.07955609,"remaining_time":1.477871373,"test":[0.6861127765]},
{"learn":[0.6871369716],"iteration":475,"passed_time":28.12250984,"remaining_time":1.417941673,"test":[0.686077717]},
{"learn":[0.6870235611],"iteration":476,"passed_time":28.16634337,"remaining_time":1.358125571,"test":[0.6860459709]},
{"learn":[0.6867895726],"iteration":477,"passed_time":28.21057452,"remaining_time":1.298394643,"test":[0.6860835569]},
{"learn":[0.6866728641],"iteration":478,"passed_time":28.2565512,"remaining_time":1.238804959,"test":[0.6861128505]},
{"learn":[0.6865013993],"iteration":479,"passed_time":28.30204302,"remaining_time":1.179251792,"test":[0.6860932084]},
{"learn":[0.6864673471],"iteration":480,"passed_time":28.34688646,"remaining_time":1.119731482,"test":[0.6860477891]},
{"learn":[0.6864112576],"iteration":481,"passed_time":28.39027396,"remaining_time":1.0602177,"test":[0.6860295392]},
{"learn":[0.6863242051],"iteration":482,"passed_time":28.43208811,"remaining_time":1.000715316,"test":[0.6859630694]},
{"learn":[0.6862275565],"iteration":483,"passed_time":28.4742645,"remaining_time":0.941298,"test":[0.6859471279]},
{"learn":[0.6861217293],"iteration":484,"passed_time":28.52100149,"remaining_time":0.8820928296,"test":[0.6858351919]},
{"learn":[0.6860397298],"iteration":485,"passed_time":28.56764624,"remaining_time":0.8229363113,"test":[0.6857741618]},
{"learn":[0.6857474735],"iteration":486,"passed_time":28.62400374,"remaining_time":0.7640904488,"test":[0.6858613686]},
{"learn":[0.6855948364],"iteration":487,"passed_time":28.66924577,"remaining_time":0.7049814533,"test":[0.6855984493]},
{"learn":[0.6854870549],"iteration":488,"passed_time":28.71499524,"remaining_time":0.6459405883,"test":[0.6855663473]},
{"learn":[0.685373443],"iteration":489,"passed_time":28.76429439,"remaining_time":0.5870264161,"test":[0.6854661051]},
{"learn":[0.685336575],"iteration":490,"passed_time":28.81031073,"remaining_time":0.5280912353,"test":[0.6855133084]},
{"learn":[0.6849128971],"iteration":491,"passed_time":28.85735383,"remaining_time":0.4692252656,"test":[0.6855164585]},
{"learn":[0.684856245],"iteration":492,"passed_time":28.90016692,"remaining_time":0.4103471977,"test":[0.6855292331]},
{"learn":[0.6847775519],"iteration":493,"passed_time":28.94486053,"remaining_time":0.3515570105,"test":[0.685459141]},
{"learn":[0.684680048],"iteration":494,"passed_time":28.98695289,"remaining_time":0.2927975039,"test":[0.6854580662]},
{"learn":[0.6844553654],"iteration":495,"passed_time":29.03877424,"remaining_time":0.2341836633,"test":[0.6852589441]},
{"learn":[0.6844259173],"iteration":496,"passed_time":29.08046701,"remaining_time":0.1755360182,"test":[0.6852931928]},
{"learn":[0.6842410026],"iteration":497,"passed_time":29.12246375,"remaining_time":0.1169576857,"test":[0.685323735]},
{"learn":[0.683873663],"iteration":498,"passed_time":29.1705266,"remaining_time":0.05845796913,"test":[0.6849763857]},
{"learn":[0.68368237],"iteration":499,"passed_time":29.21406316,"remaining_time":0,"test":[0.6846675097]}
]}