iter	MultiClass
0	1.293457658
1	1.22774117
2	1.173209838
3	1.130113526
4	1.091369458
5	1.058434133
6	1.031672428
7	1.00930112
8	0.9882142242
9	0.9701500185
10	0.9547719325
11	0.9424687564
12	0.9311455303
13	0.920603141
14	0.9061409282
15	0.8934772631
16	0.8837428314
17	0.8747271853
18	0.8662925251
19	0.857519837
20	0.8520219447
21	0.846768259
22	0.8427824659
23	0.8365246799
24	0.8322158474
25	0.8268145785
26	0.823775692
27	0.8202914437
28	0.8182400385
29	0.816241584
30	0.8133294816
31	0.8116679381
32	0.8087743037
33	0.8064182991
34	0.8036753073
35	0.8014058491
36	0.799598246
37	0.7978896857
38	0.7966621546
39	0.7948111457
40	0.7938661233
41	0.7924649882
42	0.7911231268
43	0.7900139179
44	0.7888823709
45	0.7885196211
46	0.7873383722
47	0.7868300444
48	0.7860535511
49	0.7848417369
50	0.783929255
51	0.7832866901
52	0.7825915824
53	0.7815164693
54	0.780902211
55	0.7803793686
56	0.779890333
57	0.7796206307
58	0.7791435102
59	0.7787733442
60	0.7778723379
61	0.7771561125
62	0.7766469163
63	0.7761536852
64	0.7757596678
65	0.7752051975
66	0.7740716149
67	0.7736135766
68	0.7734366621
69	0.7729362919
70	0.7727925901
71	0.7724351903
72	0.7714280181
73	0.7710306303
74	0.7706089984
75	0.7703664414
76	0.7699017132
77	0.7692829257
78	0.768859219
79	0.7678378141
80	0.7674707593
81	0.7672807971
82	0.7665702269
83	0.7661023657
84	0.765289496
85	0.765170493
86	0.7650969651
87	0.7645536519
88	0.7643810756
89	0.7639099872
90	0.7632249601
91	0.7630471616
92	0.762601005
93	0.7617774689
94	0.7615740631
95	0.7614665421
96	0.7611719434
97	0.7608142183
98	0.7601560797
99	0.7599553666
100	0.7593940541
101	0.7590865865
102	0.7589565038
103	0.7587769952
104	0.7581638679
105	0.7579746336
106	0.7579252553
107	0.7577459232
108	0.7573739481
109	0.7570238881
110	0.7569032134
111	0.7564841568
112	0.7563944172
113	0.756182616
114	0.7557026402
115	0.7555260172
116	0.7553322206
117	0.7547993378
118	0.7541263058
119	0.753893812
120	0.7538262246
121	0.7536450171
122	0.7533738597
123	0.7532847224
124	0.7530994951
125	0.7530139757
126	0.7526604059
127	0.752173091
128	0.7515685618
129	0.7514780738
130	0.7511314826
131	0.750984492
132	0.7508735391
133	0.7506721446
134	0.7503175636
135	0.7499879549
136	0.7498044865
137	0.7492173538
138	0.7488629218
139	0.7487566892
140	0.7482077101
141	0.7475696932
142	0.7474209485
143	0.7472951658
144	0.7471763594
145	0.74683699
146	0.7467756219
147	0.7465043306
148	0.7461387258
149	0.745974938
150	0.745884019
151	0.745767132
152	0.7456122127
153	0.7454785717
154	0.7450865531
155	0.7448328039
156	0.7447441786
157	0.7444156233
158	0.7443425542
159	0.7440595259
160	0.7439570586
161	0.7438830776
162	0.7434233625
163	0.7431732768
164	0.7431497546
165	0.7429171616
166	0.7425638092
167	0.7424982515
168	0.7424709264
169	0.7424047231
170	0.7423209239
171	0.7422324466
172	0.7420466723
173	0.7418017151
174	0.7416299937
175	0.7414416622
176	0.7413959951
177	0.7408169235
178	0.7405509213
179	0.7401052698
180	0.7399162162
181	0.7397134143
182	0.7395676995
183	0.7392746598
184	0.7391599825
185	0.7390604173
186	0.7387735633
187	0.7387019163
188	0.738619974
189	0.7384839948
190	0.7383697487
191	0.7383183745
192	0.7381210468
193	0.7377907495
194	0.7376893512
195	0.7376738882
196	0.7376025795
197	0.7375285012
198	0.7374023729
199	0.7371036686
200	0.7369643454
201	0.7368880136
202	0.7367144512
203	0.7365786512
204	0.7365325542
205	0.7364204591
206	0.73625066
207	0.7361343504
208	0.736025607
209	0.7356067917
210	0.73544015
211	0.7353682077
212	0.7353399221
213	0.7350815792
214	0.7349277107
215	0.7347329527
216	0.734572114
217	0.7344766584
218	0.7344265007
219	0.7343284653
220	0.734079996
221	0.7338225896
222	0.7336568311
223	0.7332915204
224	0.7329381596
225	0.7328020108
226	0.7324832901
227	0.7323981949
228	0.7322028003
229	0.7320594566
230	0.7317980901
231	0.7316850214
232	0.7314880479
233	0.7313639771
234	0.7311673207
235	0.7310401574
236	0.7309999065
237	0.7308567946
238	0.7307863042
239	0.7307652557
240	0.7303711476
241	0.7302876638
242	0.7302117112
243	0.7300330354
244	0.7298785042
245	0.7297984244
246	0.7296880174
247	0.7296107843
248	0.7293961647
249	0.7293372569
250	0.7291317652
251	0.7287500966
252	0.7286203259
253	0.7284300715
254	0.7283744828
255	0.728179708
256	0.7276679752
257	0.727358671
258	0.727226647
259	0.7268198626
260	0.7266746811
261	0.7265979955
262	0.7263710296
263	0.7261959737
264	0.7260221523
265	0.725797647
266	0.7255210655
267	0.7254271164
268	0.7252935451
269	0.7251522574
270	0.7249139553
271	0.7246235334
272	0.7244472877
273	0.7243400044
274	0.724248078
275	0.7239997565
276	0.7238528399
277	0.7237255587
278	0.7233408286
279	0.7231527201
280	0.7230035229
281	0.7229413062
282	0.722644785
283	0.7225837321
284	0.7222229147
285	0.722170545
286	0.7219848197
287	0.721835851
288	0.721507539
289	0.7213616135
290	0.7212993092
291	0.7211969669
292	0.7209393566
293	0.7207171542
294	0.7206431461
295	0.7205369323
296	0.720501878
297	0.7203452522
298	0.7200498971
299	0.7196985178
300	0.7195694068
301	0.7193892203
302	0.7192261305
303	0.7190888005
304	0.7190288579
305	0.7188827573
306	0.7187484622
307	0.7184044516
308	0.7182071346
309	0.7181626972
310	0.7179725221
311	0.7178216751
312	0.717704643
313	0.7176199023
314	0.7173393316
315	0.7171573935
316	0.716847991
317	0.7165853173
318	0.716344758
319	0.7161884821
320	0.7161386321
321	0.71604208
322	0.7159370389
323	0.7157991409
324	0.7157141051
325	0.7153071132
326	0.7150620528
327	0.7147981809
328	0.7147507361
329	0.7146240377
330	0.7144973872
331	0.7143963529
332	0.7141565559
333	0.7139984565
334	0.7138969023
335	0.7138153231
336	0.7136920827
337	0.7134907311
338	0.7134186273
339	0.7133866804
340	0.713321355
341	0.7132643288
342	0.713099729
343	0.7130119119
344	0.7128875826
345	0.7127103514
346	0.7126385993
347	0.7125927554
348	0.712501141
349	0.7124110946
350	0.7122925369
351	0.7122505947
352	0.7118889427
353	0.711769491
354	0.7116881349
355	0.711661905
356	0.7115701004
357	0.7113858474
358	0.7112875191
359	0.7112114983
360	0.7109959788
361	0.7108578171
362	0.7108275488
363	0.7107475922
364	0.7106211937
365	0.7104943431
366	0.7102903014
367	0.7102578745
368	0.7101613627
369	0.7100971914
370	0.7099759914
371	0.7097497709
372	0.7095988342
373	0.7095313173
374	0.7093680663
375	0.7091808161
376	0.7091476139
377	0.7089557172
378	0.7086704483
379	0.7084134579
380	0.7083301312
381	0.7082934131
382	0.7081537038
383	0.7079822632
384	0.7078437904
385	0.7076542557
386	0.7075381241
387	0.7074700414
388	0.7074049156
389	0.7073103218
390	0.7072534274
391	0.7069411615
392	0.7068413807
393	0.7066282885
394	0.7065304833
395	0.7064075534
396	0.7062381359
397	0.7060666476
398	0.7059652754
399	0.7057861724
400	0.7054971418
401	0.7053743272
402	0.7051968872
403	0.705093086
404	0.7050227175
405	0.7049502199
406	0.7046955108
407	0.7044823728
408	0.7044017556
409	0.7043373463
410	0.7042735258
411	0.704177379
412	0.7041556598
413	0.7041053684
414	0.7039412367
415	0.7037211574
416	0.7036679195
417	0.7036460448
418	0.7035902403
419	0.7034255794
420	0.703320058
421	0.7031873274
422	0.7031036121
423	0.7028686497
424	0.7028372046
425	0.7027887897
426	0.7026172275
427	0.7025250218
428	0.7022340329
429	0.7021282029
430	0.701894184
431	0.7016861155
432	0.7016239248
433	0.7015681537
434	0.7014190385
435	0.7013037595
436	0.7010588029
437	0.700938515
438	0.700741511
439	0.7006407144
440	0.7005668889
441	0.7004209253
442	0.7001720217
443	0.6999557167
444	0.6998218266
445	0.6994987557
446	0.6993875661
447	0.6993052115
448	0.6992238454
449	0.6991860218
450	0.6991047531
451	0.6990324284
452	0.6988240732
453	0.6984966451
454	0.6983678474
455	0.6982557136
456	0.6982064659
457	0.6980914432
458	0.6980402877
459	0.6979222159
460	0.6978580176
461	0.6974795631
462	0.6972319383
463	0.6970197945
464	0.6968966538
465	0.6968474048
466	0.6967596512
467	0.696602703
468	0.6963916729
469	0.6963396068
470	0.6961523409
471	0.6959332066
472	0.6959089886
473	0.6958091964
474	0.6956902787
475	0.6956209586
476	0.695562351
477	0.6955465967
478	0.6954726946
479	0.6954217008
480	0.695171179
481	0.6951474701
482	0.6950822725
483	0.6948865014
484	0.6947615484
485	0.6946985293
486	0.6945690065
487	0.6944809638
488	0.6941062966
489	0.6940489136
490	0.6938766758
491	0.6937041812
492	0.6935591698
493	0.6935038831
494	0.6934151077
495	0.6932737959
496	0.6931053332
497	0.6929072764
498	0.692818751
499	0.6925429176
