iter	Passed	Remaining
0	41	20600
1	89	22170
2	134	22315
3	176	21877
4	216	21410
5	257	21181
6	298	21039
7	337	20730
8	378	20641
9	425	20851
10	468	20810
11	510	20771
12	562	21075
13	600	20859
14	639	20675
15	679	20569
16	721	20493
17	771	20670
18	819	20744
19	861	20685
20	903	20597
21	945	20550
22	986	20467
23	1032	20468
24	1072	20385
25	1114	20315
26	1156	20266
27	1199	20224
28	1244	20207
29	1291	20232
30	1343	20330
31	1408	20600
32	1471	20827
33	1528	20945
34	1589	21123
35	1640	21150
36	1697	21240
37	1751	21294
38	1806	21356
39	1866	21470
40	1931	21627
41	1999	21801
42	2053	21820
43	2109	21863
44	2156	21802
45	2207	21782
46	2254	21733
47	2305	21705
48	2356	21687
49	2418	21762
50	2486	21893
51	2549	21967
52	2608	22002
53	2665	22015
54	2722	22027
55	2771	21972
56	2821	21928
57	2870	21876
58	2916	21801
59	2971	21788
60	3023	21756
61	3069	21687
62	3116	21619
63	3162	21541
64	3206	21461
65	3253	21392
66	3299	21325
67	3344	21248
68	3389	21174
69	3433	21089
70	3477	21012
71	3522	20936
72	3566	20861
73	3612	20796
74	3658	20733
75	3701	20652
76	3745	20576
77	3793	20526
78	3840	20464
79	3889	20422
80	3932	20344
81	3977	20274
82	4020	20199
83	4065	20133
84	4113	20083
85	4158	20021
86	4201	19944
87	4244	19873
88	4287	19799
89	4331	19734
90	4383	19701
91	4431	19654
92	4475	19587
93	4548	19646
94	4605	19634
95	4646	19554
96	4697	19514
97	4739	19440
98	4781	19367
99	4828	19312
100	4873	19253
101	4916	19183
102	4957	19106
103	5008	19070
104	5056	19020
105	5107	18982
106	5167	18981
107	5230	18984
108	5286	18965
109	5340	18934
110	5401	18928
111	5461	18920
112	5529	18936
113	5619	19026
114	5671	18986
115	5729	18966
116	5782	18929
117	5837	18898
118	5891	18863
119	5946	18830
120	5995	18780
121	6041	18717
122	6086	18656
123	6134	18600
124	6188	18565
125	6242	18528
126	6296	18493
127	6349	18454
128	6405	18420
129	6452	18364
130	6504	18321
131	6553	18269
132	6600	18214
133	6646	18154
134	6696	18104
135	6738	18035
136	6781	17968
137	6831	17921
138	6874	17854
139	6930	17821
140	6993	17807
141	7041	17752
142	7087	17693
143	7136	17643
144	7184	17590
145	7236	17545
146	7286	17498
147	7341	17459
148	7397	17425
149	7446	17375
150	7497	17327
151	7543	17270
152	7585	17202
153	7626	17135
154	7671	17076
155	7716	17015
156	7764	16962
157	7816	16918
158	7869	16877
159	7923	16837
160	7979	16802
161	8028	16751
162	8076	16697
163	8125	16646
164	8173	16594
165	8220	16540
166	8263	16477
167	8308	16419
168	8352	16358
169	8402	16310
170	8443	16246
171	8501	16212
172	8546	16154
173	8588	16091
174	8630	16027
175	8672	15965
176	8716	15906
177	8757	15842
178	8800	15782
179	8842	15720
180	8882	15654
181	8923	15591
182	8961	15524
183	9005	15465
184	9047	15404
185	9090	15346
186	9136	15293
187	9178	15232
188	9220	15171
189	9261	15110
190	9302	15049
191	9351	15001
192	9419	14983
193	9466	14931
194	9511	14877
195	9561	14830
196	9624	14803
197	9684	14771
198	9734	14724
199	9782	14673
200	9832	14626
201	9882	14579
202	9926	14522
203	9970	14467
204	10022	14422
205	10073	14377
206	10125	14331
207	10177	14287
208	10229	14242
209	10281	14198
210	10333	14152
211	10386	14110
212	10448	14077
213	10507	14042
214	10559	13998
215	10613	13954
216	10673	13920
217	10734	13885
218	10794	13850
219	10855	13815
220	10911	13775
221	10963	13729
222	11016	13684
223	11077	13649
224	11133	13608
225	11186	13562
226	11241	13520
227	11289	13468
228	11338	13417
229	11389	13370
230	11434	13315
231	11477	13258
232	11523	13205
233	11574	13157
234	11628	13113
235	11680	13066
236	11730	13017
237	11781	12970
238	11834	12924
239	11887	12878
240	11943	12835
241	11994	12787
242	12044	12738
243	12095	12690
244	12147	12643
245	12195	12592
246	12242	12539
247	12291	12489
248	12339	12438
249	12390	12390
250	12437	12338
251	12487	12289
252	12533	12236
253	12579	12183
254	12626	12130
255	12675	12081
256	12727	12034
257	12776	11983
258	12827	11936
259	12882	11891
260	12932	11842
261	12984	11794
262	13042	11753
263	13098	11709
264	13147	11658
265	13200	11612
266	13257	11569
267	13314	11526
268	13368	11480
269	13419	11431
270	13473	11385
271	13527	11339
272	13574	11287
273	13628	11241
274	13677	11191
275	13721	11136
276	13773	11088
277	13817	11034
278	13862	10980
279	13907	10927
280	13955	10876
281	13998	10821
282	14043	10768
283	14089	10715
284	14135	10663
285	14178	10609
286	14223	10555
287	14265	10500
288	14308	10446
289	14354	10394
290	14398	10341
291	14439	10285
292	14482	10231
293	14528	10179
294	14574	10128
295	14620	10076
296	14665	10023
297	14710	9971
298	14753	9917
299	14796	9864
300	14838	9810
301	14879	9755
302	14920	9700
303	14961	9646
304	15002	9591
305	15044	9537
306	15095	9489
307	15150	9444
308	15200	9395
309	15243	9342
310	15287	9290
311	15340	9243
312	15391	9195
313	15436	9144
314	15480	9091
315	15523	9038
316	15574	8991
317	15628	8944
318	15680	8897
319	15734	8850
320	15785	8802
321	15829	8750
322	15881	8702
323	15927	8651
324	15973	8601
325	16021	8551
326	16066	8499
327	16112	8449
328	16156	8397
329	16202	8346
330	16250	8297
331	16293	8245
332	16339	8194
333	16388	8144
334	16431	8092
335	16473	8040
336	16522	7991
337	16569	7941
338	16617	7892
339	16665	7842
340	16711	7792
341	16757	7741
342	16803	7691
343	16857	7644
344	16905	7595
345	16960	7548
346	17009	7499
347	17058	7450
348	17111	7403
349	17162	7355
350	17218	7309
351	17268	7260
352	17323	7214
353	17384	7169
354	17433	7120
355	17486	7073
356	17536	7024
357	17579	6972
358	17625	6922
359	17695	6881
360	17743	6831
361	17790	6782
362	17839	6732
363	17885	6682
364	17935	6633
365	17983	6584
366	18031	6534
367	18075	6483
368	18118	6432
369	18163	6381
370	18206	6330
371	18249	6279
372	18294	6228
373	18340	6178
374	18380	6126
375	18422	6075
376	18475	6027
377	18521	5977
378	18562	5926
379	18603	5874
380	18645	5823
381	18685	5771
382	18731	5722
383	18777	5672
384	18821	5621
385	18878	5575
386	18931	5527
387	18977	5477
388	19026	5429
389	19075	5380
390	19120	5330
391	19164	5280
392	19209	5229
393	19255	5180
394	19307	5132
395	19355	5083
396	19401	5033
397	19445	4983
398	19491	4933
399	19537	4884
400	19581	4834
401	19637	4787
402	19691	4739
403	19743	4691
404	19790	4642
405	19832	4591
406	19870	4540
407	19912	4490
408	19951	4439
409	19996	4389
410	20035	4338
411	20075	4288
412	20115	4237
413	20161	4188
414	20208	4139
415	20257	4090
416	20310	4042
417	20359	3993
418	20407	3945
419	20458	3896
420	20505	3847
421	20549	3798
422	20594	3748
423	20648	3701
424	20704	3653
425	20752	3604
426	20793	3554
427	20835	3504
428	20878	3455
429	20922	3405
430	20964	3356
431	21005	3306
432	21048	3256
433	21090	3207
434	21132	3157
435	21177	3108
436	21222	3059
437	21271	3010
438	21324	2963
439	21375	2914
440	21426	2866
441	21473	2817
442	21520	2768
443	21567	2720
444	21618	2671
445	21666	2623
446	21718	2575
447	21767	2526
448	21816	2478
449	21863	2429
450	21906	2380
451	21951	2331
452	21999	2282
453	22045	2233
454	22113	2187
455	22179	2140
456	22255	2094
457	22324	2047
458	22381	1999
459	22437	1951
460	22488	1902
461	22536	1853
462	22583	1804
463	22632	1755
464	22678	1707
465	22725	1658
466	22772	1609
467	22829	1560
468	22882	1512
469	22936	1464
470	22986	1415
471	23036	1366
472	23099	1318
473	23147	1269
474	23195	1220
475	23251	1172
476	23349	1125
477	23414	1077
478	23473	1029
479	23560	981
480	23636	933
481	23705	885
482	23772	836
483	23850	788
484	23928	740
485	24006	691
486	24083	642
487	24154	593
488	24229	545
489	24291	495
490	24365	446
491	24442	397
492	24503	347
493	24573	298
494	24637	248
495	24704	199
496	24802	149
497	24871	99
498	24944	49
499	25013	0
